DBI_INP_K_AIREND_TEMP_1 0 0 = 2.420000E-001
DBI_INP_L_AIREND_TEMP_1 0 0 = 361
DBI_INP_K_AIREND_TEMP_2 0 0 = 2.420000E-001
DBI_INP_L_AIREND_TEMP_2 0 0 = 361
DBI_INP_K_HYD_FLUID_TEMP 0 0 = 2.420000E-001
DBI_INP_L_HYD_FLUID_TEMP 0 0 = 361
DBI_INP_K_DRIVE_LUBE_PUMP_GEARBOX_TEMP 0 0 = 2.420000E-001
DBI_INP_L_DRIVE_LUBE_PUMP_GEARBOX_TEMP 0 0 = 361
DBI_INP_K_DRIVE_LUBE_PUMP_GEARBOX_PRESS 0 0 = 6.100000E-002
DBI_INP_L_DRIVE_LUBE_PUMP_GEARBOX_PRESS 0 0 = 102
DBI_INP_K_ROTARY_LUBE_PUMP_TEMP 0 0 = 2.420000E-001
DBI_INP_L_ROTARY_LUBE_PUMP_TEMP 0 0 = 361
DBI_INP_K_ROTARY_LUBE_PUMP_PRESS 0 0 = 6.100000E-002
DBI_INP_L_ROTARY_LUBE_PUMP_PRESS 0 0 = 102
DBI_ALARM_HYD_OIL_TEMP_HIGH_WRN_LIMIT 0 0 = 7.950000E+001
DBI_ALARM_HYD_OIL_TEMP_HIGH_ERR_LIMIT 0 0 = 8.800000E+001
DBI_AIR_TEMP_1_WARNING 0 0 = 1.155400E+002
DBI_AIR_TEMP_1_SHUTDOWN 0 0 = 1.211000E+002
DBI_FAN_TEMP_HYDOIL_MIN 0 0 = 57
DBI_FAN_TEMP_HYDOIL_MAX 0 0 = 68
DBI_FAN_TEMP_COMPOIL_MIN 0 0 = 96
DBI_FAN_TEMP_COMPOIL_MAX 0 0 = 112
DBI_FAN_TEMP_COOLANT_MIN 0 0 = 88
DBI_FAN_TEMP_COOLANT_MAX 0 0 = 96
DBI_FAN_TEMP_CLUTCH_MIN 0 0 = 71
DBI_FAN_TEMP_CLUTCH_MAX 0 0 = 82
DBI_FAN_TEMP_ENGINE_INTAKE_MANIFOLD_MIN 0 0 = 40
DBI_FAN_TEMP_ENGINE_INTAKE_MANIFOLD_MAX 0 0 = 47
DBI_FAN_TEMP_CAC_MIN 0 0 = 53
DBI_FAN_TEMP_CAC_MAX 0 0 = 69
DBI_FAN_FILTER_CONSTANT 0 0 = 1.000000E-001
DBI_FAN_CURRENT_MIN 0 0 = 80
DBI_FAN_CURRENT_MAX 0 0 = 375
DBI_MAX_ALLOWED_PITCH_TOWER_UP_NDE_LOW 0 0 = 2.000000E+001
DBI_MAX_ALLOWED_PITCH_TOWER_UP_DE_LOW 0 0 = 1.100000E+001
DBI_MAX_ALLOWED_ROLL_TOWER_UP_NCS_LOW 0 0 = 1.300000E+001
DBI_MAX_ALLOWED_ROLL_TOWER_UP_CS_LOW 0 0 = 1.300000E+001
DBI_PITCH_ROLL_ANGLE_ALARM_TIME 0 0 = 2000
DBI_MAX_ALLOWED_PITCH_TOWER_DOWN_NDE_LOW 0 0 = 2.000000E+001
DBI_MAX_ALLOWED_PITCH_TOWER_DOWN_DE_LOW 0 0 = 2.000000E+001
DBI_MAX_ALLOWED_ROLL_TOWER_DOWN_NCS_LOW 0 0 = 2.000000E+001
DBI_MAX_ALLOWED_ROLL_TOWER_DOWN_CS_LOW 0 0 = 2.000000E+001
DBI_TOWER_ANGLE_ALARM_TIME 0 0 = 2000
DBI_MAX_ALLOWED_PITCH_TOWER_UP_NDE_LOW_LEVEL 0 0 = 7.000000E+000
DBI_MAX_ALLOWED_PITCH_TOWER_UP_DE_LOW_LEVEL 0 0 = 7.000000E+000
DBI_MAX_ALLOWED_ROLL_TOWER_UP_NCS_LOW_LEVEL 0 0 = 7.000000E+000
DBI_MAX_ALLOWED_ROLL_TOWER_UP_CS_LOW_LEVEL 0 0 = 7.000000E+000
DBI_MAX_ALLOWED_PITCH_TOWER_DOWN_NDE_LOW_LEVEL 0 0 = 7.000000E+000
DBI_MAX_ALLOWED_PITCH_TOWER_DOWN_DE_LOW_LEVEL 0 0 = 7.000000E+000
DBI_MAX_ALLOWED_ROLL_TOWER_DOWN_NCS_LOW_LEVEL 0 0 = 7.000000E+000
DBI_MAX_ALLOWED_ROLL_TOWER_DOWN_CS_LOW_LEVEL 0 0 = 7.000000E+000
DBI_TOWER_FUNCTION_PITCH_LIMIT 0 0 = 1.000000E+000
DBI_TOWER_FUNCTION_ROLL_LIMIT 0 0 = 1.000000E+000
DBI_INP_K_LOWER_TOWER_LAT_VIBR 0 0 = 1.220000E-001
DBI_INP_L_LOWER_TOWER_LAT_VIBR 0 0 = 196
DBI_INP_K_RIG_INCL_PITCH 0 0 = 2.900000E-002
DBI_INP_L_RIG_INCL_PITCH 0 0 = 2358
DBI_INP_K_RIG_INCL_ROLL 0 0 = -1.150000E-001
DBI_INP_L_RIG_INCL_ROLL 0 0 = 589
DBI_INP_K_TOWER_ANGLE 0 0 = 1.150000E-001
DBI_INP_L_TOWER_ANGLE 0 0 = 189
DBI_SYSTEM_MIN_VOLTAGE 0 0 = 2.000000E+001
DBI_SYSTEM_MAX_VOLTAGE 0 0 = 2.800000E+001
DBI_VOLTAGE_ALARM_DELAY 0 0 = 3.000000E+002
DBI_INP_K_PROPEL_BREAK_RELEASE 0 0 = 4.270000E-001
DBI_INP_L_PROPEL_BREAK_RELEASE 0 0 = 102
DBI_INP_K_MAIN_PUMP_PRESS_CS_A 0 0 = 1.070000E-001
DBI_INP_L_MAIN_PUMP_PRESS_CS_A 0 0 = 410
DBI_INP_K_MAIN_PUMP_PRESS_CS_B 0 0 = 4.270000E-001
DBI_INP_L_MAIN_PUMP_PRESS_CS_B 0 0 = 102
DBI_INP_K_MAIN_PUMP_PRESS_NCS_A 0 0 = 1.070000E-001
DBI_INP_L_MAIN_PUMP_PRESS_NCS_A 0 0 = 410
DBI_INP_K_MAIN_PUMP_PRESS_NCS_B 0 0 = 4.270000E-001
DBI_INP_L_MAIN_PUMP_PRESS_NCS_B 0 0 = 102
DBI_INP_K_HOT_OIL_SHUTTLE_PRESS_CS 0 0 = 6.100000E-002
DBI_INP_L_HOT_OIL_SHUTTLE_PRESS_CS 0 0 = 102
DBI_INP_K_HOT_OIL_SHUTTLE_PRESS_NCS 0 0 = 6.100000E-002
DBI_INP_L_HOT_OIL_SHUTTLE_PRESS_NCS 0 0 = 102
DBI_INP_K_RETURN_HYD_MAINFOLD_PRESS 0 0 = 6.100000E-002
DBI_INP_L_RETURN_HYD_MAINFOLD_PRESS 0 0 = 102
DBI_INP_K_DRAIN_HYD_MAINFOLD_PRESS 0 0 = 6.100000E-002
DBI_INP_L_DRAIN_HYD_MAINFOLD_PRESS 0 0 = 102
DBI_INP_K_FAN_INLET_PRESS 0 0 = 4.270000E-001
DBI_INP_L_FAN_INLET_PRESS 0 0 = 102
DBI_INP_K_AIREND_TANK_PRESS 0 0 = 6.100000E-002
DBI_INP_L_AIREND_TANK_PRESS 0 0 = 412
DBI_INP_K_SUPERCHARGE_MAINFOLD_PRESS 0 0 = 6.100000E-002
DBI_INP_L_SUPERCHARGE_MAINFOLD_PRESS 0 0 = 102
DBI_INP_K_BIT_AIR_PRESS 0 0 = 1.500000E-002
DBI_INP_L_BIT_AIR_PRESS 0 0 = 410
DBI_INP_K_HOLDBACK_PRESS 0 0 = 4.270000E-001
DBI_INP_L_HOLDBACK_PRESS 0 0 = 102
DBI_INP_K_6_SP_INLET_PRESSURE 0 0 = 4.270000E-001
DBI_INP_L_6_SP_INLET_PRESSURE 0 0 = 102
DBI_INP_K_7_SP_INLET_PRESSURE 0 0 = 4.270000E-001
DBI_INP_L_7_SP_INLET_PRESSURE 0 0 = 102
DBI_ROTA_SPEED_ACC_LIMIT_PERCENT 0 0 = 1.000000E+002
DBI_ROTA_MOTOR_DISPLACEMENT 0 0 = 1.952085E+002
DBI_ROTA_MOTOR_RETURN_PRESSURE 0 0 = 9.652660E+000
DBI_ROTA_HEAD_GEAR_RATIO 0 0 = 1.508000E+001
DBI_ROTA_MOTOR_TORQUE_EFFICIENCY 0 0 = 9.000000E-001
DBI_FEED_PRES_CYL_PISTON_DIAMETER 0 0 = 1.270003E+002
DBI_FEED_PRES_CYL_ROD_DIAMETER 0 0 = 9.398019E+001
DBI_FEED_PRES_NO_OF_CYL 0 0 = 2
DBI_FEED_PRES_REEVING_FACTOR 0 0 = 2.000000E+000
DBI_FEED_PRES_MECHANICAL_EFFICIENCY 0 0 = 9.500000E-001
DBI_FEED_PRES_ROTARY_HEAD_WEIGHT 0 0 = 1.360791E+003
DBI_FEED_PRES_ROD_WEIGHT 0 0 = 9.071940E+002
DBI_DRIVE_LPG_HIGH_TEMP_PARAMETER 0 0 = 8.800000E+001
DBI_DRIVE_LPG_LOW_PRESS_PARAMETER 0 0 = 1.000000E+000
DBI_ROTARY_HEAD_LPG_LOW_PRESS_PARAMETER 0 0 = 1.000000E+000
DBI_ROTARY_HEAD_LPG_HIGH_TEMP_PARAMETER 0 0 = 8.777778E+001
DBI_MIN_CLOSED_LOOP_PUMP_PRESSURE 0 0 = 6.894757E+000
DBI_LOW_CLOSED_LOOP_PRESSURE_DURATION 0 0 = 1.000000E+000
DBI_INP_K_FIRE_SUPPRESSION_PRESSURE 0 0 = 4.180000E-001
DBI_INP_L_FIRE_SUPPRESSION_PRESSURE 0 0 = 102
DBI_FIRE_SUPPRESSION_TIMER 0 0 = 2000
DBI_MINIMUM_FIRE_SUPPRESSION_PRESSURE 0 0 = 2.000000E+002
DBI_ALARM_AIR_COMPRESSOR_TEMP_HIGH_FLT_CONST 0 0 = 8.000000E-001
DBI_ARC_ROD_SUPPORT_JAW_CLOSE_TIME 0 0 = 1.000000E+002
DBI_ARC_ROD_SUPPORT_FULLY_OPEN_MAX_TIME 0 0 = 7.000000E+000
DBI_ARC_ROD_SUPPORT_JAW_CLOSE_MAX_TIME 0 0 = 1.000000E+001
DBI_HEAD_BELOW_CAROUSEL_TOP_MAXIMUM_VALUE 0 4 = 1.500000E+001
; CHECKSUM      =     C059747B
