; Date     : 2009-01-23
; Time     : 10:18:11
; Serial No: 8999 8053 00
; Version  : 1.1 rev. 6
; 
LDBI_LS_AUTOSAVE_DRILL_UNIT 0 0 = 0
LDBI_LS_DRILLDATA_UNIT 0 0 = 0
LDBI_LOAD_SAVE_UNIT 0 0 = 0
DBI_DRI_DRILL_BIT 0 0 = 0
DBI_DRI_FEED_FLOW_CURR_MIN 0 0 = 100
DBI_DRI_FEED_FLOW_CURR_MAX 0 0 = 500
DBI_DRI_FEED_FLOW_CURR_LEVER_COLLAR 0 0 = 200
DBI_DRI_FEED_FLOW_CURR_POS_SLOW 0 0 = 200
DBI_DRI_FEED_FLOW_CURR_POS_FAST 0 0 = 200
DBI_DRI_FEED_FLOW_CURR_THREAD_IN 0 0 = 200
DBI_DRI_FEED_FLOW_CURR_THREAD_OUT 0 0 = 200
DBI_DRI_FEED_FLOW_CURR_AUTO_COLLAR 0 0 = 200
DBI_DRI_FEED_FLOW_CURR_AUTO_COLLAR 0 1 = 200
DBI_DRI_FEED_FLOW_CURR_AUTO_COLLAR 0 2 = 200
DBI_DRI_FEED_FLOW_CURR_AUTO_COLLAR 0 3 = 200
DBI_DRI_FEED_FLOW_CURR_AUTO_COLLAR 0 4 = 200
DBI_DRI_FEED_FLOW_CURR_DRILL_FORW 0 0 = 200
DBI_DRI_FEED_FLOW_CURR_DRILL_FORW 0 1 = 200
DBI_DRI_FEED_FLOW_CURR_DRILL_FORW 0 2 = 200
DBI_DRI_FEED_FLOW_CURR_DRILL_FORW 0 3 = 200
DBI_DRI_FEED_FLOW_CURR_DRILL_FORW 0 4 = 200
DBI_DRI_FEED_PRES_CURR_MAX_FORW 0 0 = 200
DBI_DRI_FEED_PRES_CURR_MAX_BACKW 0 0 = 200
DBI_DRI_FEED_PRES_CURR_COLLAR_MAX 0 0 = 200
DBI_DRI_FEED_PRES_CURR_COLLAR_MAX 0 1 = 200
DBI_DRI_FEED_PRES_CURR_COLLAR_MAX 0 2 = 200
DBI_DRI_FEED_PRES_CURR_COLLAR_MAX 0 3 = 200
DBI_DRI_FEED_PRES_CURR_COLLAR_MAX 0 4 = 200
DBI_DRI_FEED_PRES_CURR_DRILL_MAX 0 0 = 200
DBI_DRI_FEED_PRES_CURR_DRILL_MIN 0 0 = 200
DBI_DRI_FEED_PRES_CURR_THREAD_IN 0 0 = 200
DBI_DRI_FEED_PRES_CURR_THREAD_OUT 0 0 = 200
DBI_DRI_FEED_PRES_DRILL_MAX 0 0 = 1.000000E+002
DBI_DRI_FEED_PRES_DRILL_MIN 0 0 = 1.000000E+001
DBI_DRI_FEED_PRES_COLLAR 0 0 = 5.000000E+001
DBI_DRI_FEED_PRES_COLLAR 0 1 = 5.000000E+001
DBI_DRI_FEED_PRES_COLLAR 0 2 = 5.000000E+001
DBI_DRI_FEED_PRES_COLLAR 0 3 = 5.000000E+001
DBI_DRI_FEED_PRES_COLLAR 0 4 = 5.000000E+001
DBI_DRI_FEED_PRES_DRILL 0 0 = 8.000000E+001
DBI_DRI_FEED_PRES_DRILL 0 1 = 8.000000E+001
DBI_DRI_FEED_PRES_DRILL 0 2 = 8.000000E+001
DBI_DRI_FEED_PRES_DRILL 0 3 = 8.000000E+001
DBI_DRI_FEED_PRES_DRILL 0 4 = 8.000000E+001
DBI_DRI_FEED_PRES_INT_TIME 0 0 = 1.500000E+002
DBI_DRI_FEED_PRES_PROP_CONST 0 0 = 2.000000E+001
DBI_DRI_FEED_PRES_LIMIT_ROCK_CONTACT 0 0 = 2.500000E+001
DBI_DRI_FEED_PRES_FPCI_LEVEL 0 0 = 5.000000E+001
DBI_DRI_FEED_PRES_FPCI_LEVEL 0 1 = 5.000000E+001
DBI_DRI_FEED_PRES_FPCI_LEVEL 0 2 = 5.000000E+001
DBI_DRI_FEED_PRES_FPCI_LEVEL 0 3 = 5.000000E+001
DBI_DRI_FEED_PRES_FPCI_LEVEL 0 4 = 5.000000E+001
DBI_DRI_FEED_PRES_DRILL_CURR_TAB 0 0 = 225
DBI_DRI_FEED_PRES_DRILL_CURR_TAB 0 1 = 225
DBI_DRI_FEED_PRES_DRILL_CURR_TAB 0 2 = 225
DBI_DRI_FEED_PRES_DRILL_CURR_TAB 0 3 = 225
DBI_DRI_FEED_PRES_DRILL_CURR_TAB 0 4 = 225
DBI_DRI_FEED_PRES_COLLAR_CURR_TAB 0 0 = 175
DBI_DRI_FEED_PRES_COLLAR_CURR_TAB 0 1 = 175
DBI_DRI_FEED_PRES_COLLAR_CURR_TAB 0 2 = 175
DBI_DRI_FEED_PRES_COLLAR_CURR_TAB 0 3 = 175
DBI_DRI_ROTA_FLOW_CURR_DRILL 0 0 = 200
DBI_DRI_ROTA_FLOW_CURR_DRILL 0 1 = 200
DBI_DRI_ROTA_FLOW_CURR_DRILL 0 2 = 200
DBI_DRI_ROTA_FLOW_CURR_DRILL 0 3 = 200
DBI_DRI_ROTA_FLOW_CURR_DRILL 0 4 = 200
DBI_DRI_ROTA_FLOW_CURR_THREAD_OUT 0 0 = 300
DBI_DRI__ROTA_FLOW_CURR_THREAD_IN 0 0 = 400
DBI_DRI_ROTA_PRES_INC_DRILL 0 0 = 2.500000E+001
DBI_DRI_ROTA_PRES_INC_DRILL 0 1 = 2.500000E+001
DBI_DRI_ROTA_PRES_INC_DRILL 0 2 = 2.500000E+001
DBI_DRI_ROTA_PRES_INC_DRILL 0 3 = 2.500000E+001
DBI_DRI_ROTA_PRES_INC_DRILL 0 4 = 2.500000E+001
DBI_DRI_ROTA_PRES_INC_STUCK 0 0 = 1.500000E+001
DBI_DRI_ROTA_PRES_INC_STUCK 0 1 = 1.500000E+001
DBI_DRI_ROTA_PRES_INC_STUCK 0 2 = 1.500000E+001
DBI_DRI_ROTA_PRES_INC_STUCK 0 3 = 1.500000E+001
DBI_DRI_ROTA_PRES_INC_STUCK 0 4 = 1.500000E+001
DBI_DRI_ROTA_PRES_DEC_NOT_STUCK 0 0 = 1.000000E+001
DBI_DRI_ROTA_PRES_MAX 0 0 = 1.200000E+002
DBI_DRI_ROTA_PRES_FILT_CONST 0 0 = 5.000000E+000
DBI_DRI_DAMP_PRES_MIN 0 0 = 2.500000E+001
DBI_DRI_DAMP_PRES_MAX 0 0 = 1.500000E+002
DBI_DRI_DAMP_PRES_HIGH_PERC 0 0 = 5.500000E+001
DBI_DRI_DAMP_PRES_HIGH_PERC 0 1 = 5.500000E+001
DBI_DRI_DAMP_PRES_HIGH_PERC 0 2 = 5.500000E+001
DBI_DRI_DAMP_PRES_HIGH_PERC 0 3 = 5.500000E+001
DBI_DRI_DAMP_PRES_HIGH_PERC 0 4 = 5.500000E+001
DBI_DRI_DAMP_PRES_LOW_PERC 0 0 = 5.000000E+001
DBI_DRI_DAMP_PRES_LOW_PERC 0 1 = 5.000000E+001
DBI_DRI_DAMP_PRES_LOW_PERC 0 2 = 5.000000E+001
DBI_DRI_DAMP_PRES_LOW_PERC 0 3 = 5.000000E+001
DBI_DRI_DAMP_PRES_LOW_PERC 0 4 = 5.000000E+001
DBI_DRI_DAMP_PRES_FILT_CONST 0 0 = 5.000000E+000
DBI_DRI_DAMP_PRES_INC_RC 0 0 = 1.000000E+001
DBI_DRI_PERC_PRES_COLLAR 0 0 = 1.250000E+002
DBI_DRI_PERC_PRES_DRILL 0 0 = 2.000000E+002
DBI_DRI_PERC_PRES_DRILL 0 1 = 2.000000E+002
DBI_DRI_PERC_PRES_DRILL 0 2 = 2.000000E+002
DBI_DRI_PERC_PRES_DRILL 0 3 = 2.000000E+002
DBI_DRI_PERC_PRES_DRILL 0 4 = 2.000000E+002
DBI_DRI_PERC_PRES_BREAK_LOSE_HIGH 0 0 = 2.300000E+002
DBI_DRI_PERC_PRES_CURR_MAX 0 0 = 600
DBI_DRI_PERC_PRES_INT_TIME 0 0 = 2.500000E+002
DBI_DRI_PERC_PRES_PROP_CONST 0 0 = 1.000000E+001
DBI_DRI_PERC_DPCI_ON 0 0 = 1
DBI_DRI_RPCF_ON 0 0 = 0
DBI_DRI_RPCF_SLOPE 0 0 = 4.000000E+000
DBI_DRI_RPCF_FILT_CONST 0 0 = 5.000000E+000
DBI_DRI_RPCF_INT_TIME 0 0 = 5.000000E+002
DBI_DRI_TIME_COLLAR_MIN 0 0 = 4000
DBI_DRI_TIME_COLLAR_STUCK 0 0 = 6000
DBI_DRI_TIME_BEFORE_AUTO_DRILL 0 0 = 3000
DBI_DRI_TIME_BEFORE_AUTO_ROTA 0 0 = 2000
DBI_DRI_TIME_FEED_PRES_RAMP 0 0 = 3000
DBI_DRI_TIME_PERC_PRES_RAMP 0 0 = 3000
DBI_DRI_TIME_FEED_SPEED_RAMP 0 0 = 1000
DBI_DRI_TIME_MAX_BACK_STUCK 0 0 = 8000
DBI_DRI_TIME_MIN_BACK_STUCK 0 0 = 1000
DBI_DRI_TIME_READ_IDLE_ROTA 0 0 = 4000
DBI_DRI_TIME_LOW_FLUSH_FLOW 0 0 = 2000
DBI_DRI_TIME_LOW_FLUSH_PRES 0 0 = 4000
DBI_DRI_DESIRED_HOLE_LENGTH 0 0 = 0.000000E+000
DBI_DRI_WATERMIST_ON 0 0 = 0
DBI_DRI_PERC_COUNTER_PRES_CONTROL_ON 0 0 = 1
DBI_DRI_PERC_COUNTER_PRES 0 0 = 1.000000E+001
DBI_DRI_PERC_COUNTER_PRES 0 1 = 1.000000E+001
DBI_DRI_PERC_COUNTER_PRES 0 2 = 1.000000E+001
DBI_DRI_PERC_COUNTER_PRES 0 3 = 1.000000E+001
DBI_DRI_PERC_COUNTER_PRES 0 4 = 1.000000E+001
DBI_DRI_MIN_PERC_COUNTER_PRES_CURR 0 0 = 330
DBI_DRI_MIN_PERC_COUNTER_PRES 0 0 = 6.000000E+000
DBI_DRI_MAX_PERC_COUNTER_PRES 0 0 = 2.000000E+001
DBI_DRI_PERC_COUNTER_PRES_INT_TIME 0 0 = 2.000000E+002
DBI_DRI_PERC_COUNTER_PRES_PROP_CONST 0 0 = 2.000000E+001
DBI_MWD_SAMPLE_DISTANCE 0 0 = 2.000000E-002
DBI_MWD_ACTIVE 0 0 = 0
DBI_MWD_RECEIVER_PROCESS 0 0 = -130
DBI_MWD_RECEIVER_HW_UNIT_NO 0 0 = 0
DBI_MWD_MODE 0 0 = 0
DBI_MWD_FILE_ERROR 0 0 = 0
DBI_INP_K_FEED_PRES 0 0 = 2.930000E-001
DBI_INP_L_FEED_PRES 0 0 = 170
DBI_INP_K_ROTA_PRES 0 0 = 2.930000E-001
DBI_INP_L_ROTA_PRES 0 0 = 170
DBI_INP_K_DAMP_PRES 0 0 = 2.930000E-001
DBI_INP_L_DAMP_PRES 0 0 = 170
DBI_INP_K_PERC_PRES 0 0 = 2.930000E-001
DBI_INP_L_PERC_PRES 0 0 = 170
DBI_INP_K_PERC_COUNTER_PRES 0 0 = 6.100000E-002
DBI_INP_L_PERC_COUNTER_PRES 0 0 = 102
DBI_DRI_GUI_PRES_FILT_CONST 0 0 = 2.000000E+001
DBI_MOVE_LINK_PROP_FACT 0 0 = 0.000000E+000
DBI_MOVE_LINK_PROP_FACT 0 1 = 0.000000E+000
DBI_MOVE_LINK_PROP_FACT 0 2 = 0.000000E+000
DBI_MOVE_LINK_PROP_FACT 0 3 = 0.000000E+000
DBI_MOVE_LINK_PROP_FACT 0 4 = 0.000000E+000
DBI_MOVE_LINK_PROP_FACT 0 5 = 0.000000E+000
DBI_MOVE_LINK_PROP_FACT 0 6 = 0.000000E+000
DBI_MOVE_LINK_PROP_FACT 0 7 = 0.000000E+000
DBI_MOVE_LINK_PROP_FACT 0 8 = 0.000000E+000
DBI_MOVE_LINK_PROP_FACT 0 9 = 0.000000E+000
DBI_MOVE_LINK_PROP_FACT 0 10 = 0.000000E+000
DBI_MOVE_LINK_PROP_FACT 0 11 = 0.000000E+000
DBI_MOVE_LINK_INT_FACT 0 0 = 1.000000E+006
DBI_MOVE_LINK_INT_FACT 0 1 = 1.000000E+006
DBI_MOVE_LINK_INT_FACT 0 2 = 1.000000E+006
DBI_MOVE_LINK_INT_FACT 0 3 = 1.000000E+006
DBI_MOVE_LINK_INT_FACT 0 4 = 1.000000E+006
DBI_MOVE_LINK_INT_FACT 0 5 = 1.000000E+006
DBI_MOVE_LINK_INT_FACT 0 6 = 1.000000E+006
DBI_MOVE_LINK_INT_FACT 0 7 = 1.000000E+006
DBI_MOVE_LINK_INT_FACT 0 8 = 1.000000E+006
DBI_MOVE_LINK_INT_FACT 0 9 = 1.000000E+006
DBI_MOVE_LINK_INT_FACT 0 10 = 1.000000E+006
DBI_MOVE_LINK_INT_FACT 0 11 = 1.000000E+006
DBI_MOVE_CYL_NEG_MIN_CURR 0 0 = 350
DBI_MOVE_CYL_NEG_MIN_CURR 0 1 = 350
DBI_MOVE_CYL_NEG_MIN_CURR 0 2 = 350
DBI_MOVE_CYL_NEG_MIN_CURR 0 3 = 350
DBI_MOVE_CYL_NEG_MIN_CURR 0 4 = 350
DBI_MOVE_CYL_NEG_MIN_CURR 0 5 = 350
DBI_MOVE_CYL_NEG_MIN_CURR 0 6 = 350
DBI_MOVE_CYL_NEG_MIN_CURR 0 7 = 350
DBI_MOVE_CYL_NEG_MIN_CURR 0 8 = 350
DBI_MOVE_CYL_NEG_MIN_CURR 0 9 = 350
DBI_MOVE_CYL_NEG_MIN_CURR 0 10 = 350
DBI_MOVE_CYL_NEG_MIN_CURR 0 11 = 350
DBI_MOVE_CYL_NEG_MAX_CURR 0 0 = 550
DBI_MOVE_CYL_NEG_MAX_CURR 0 1 = 550
DBI_MOVE_CYL_NEG_MAX_CURR 0 2 = 550
DBI_MOVE_CYL_NEG_MAX_CURR 0 3 = 550
DBI_MOVE_CYL_NEG_MAX_CURR 0 4 = 550
DBI_MOVE_CYL_NEG_MAX_CURR 0 5 = 550
DBI_MOVE_CYL_NEG_MAX_CURR 0 6 = 550
DBI_MOVE_CYL_NEG_MAX_CURR 0 7 = 550
DBI_MOVE_CYL_NEG_MAX_CURR 0 8 = 550
DBI_MOVE_CYL_NEG_MAX_CURR 0 9 = 550
DBI_MOVE_CYL_NEG_MAX_CURR 0 10 = 550
DBI_MOVE_CYL_NEG_MAX_CURR 0 11 = 550
DBI_MOVE_CYL_POS_MIN_CURR 0 0 = 350
DBI_MOVE_CYL_POS_MIN_CURR 0 1 = 350
DBI_MOVE_CYL_POS_MIN_CURR 0 2 = 350
DBI_MOVE_CYL_POS_MIN_CURR 0 3 = 350
DBI_MOVE_CYL_POS_MIN_CURR 0 4 = 350
DBI_MOVE_CYL_POS_MIN_CURR 0 5 = 350
DBI_MOVE_CYL_POS_MIN_CURR 0 6 = 350
DBI_MOVE_CYL_POS_MIN_CURR 0 7 = 350
DBI_MOVE_CYL_POS_MIN_CURR 0 8 = 350
DBI_MOVE_CYL_POS_MIN_CURR 0 9 = 350
DBI_MOVE_CYL_POS_MIN_CURR 0 10 = 350
DBI_MOVE_CYL_POS_MIN_CURR 0 11 = 350
DBI_MOVE_CYL_POS_MAX_CURR 0 0 = 550
DBI_MOVE_CYL_POS_MAX_CURR 0 1 = 550
DBI_MOVE_CYL_POS_MAX_CURR 0 2 = 550
DBI_MOVE_CYL_POS_MAX_CURR 0 3 = 550
DBI_MOVE_CYL_POS_MAX_CURR 0 4 = 550
DBI_MOVE_CYL_POS_MAX_CURR 0 5 = 550
DBI_MOVE_CYL_POS_MAX_CURR 0 6 = 550
DBI_MOVE_CYL_POS_MAX_CURR 0 7 = 550
DBI_MOVE_CYL_POS_MAX_CURR 0 8 = 550
DBI_MOVE_CYL_POS_MAX_CURR 0 9 = 550
DBI_MOVE_CYL_POS_MAX_CURR 0 10 = 550
DBI_MOVE_CYL_POS_MAX_CURR 0 11 = 550
DBI_RLF_AIR_PRES_MIN_ALARM 0 0 = 0.000000E+000
DBI_RLF_OIL_PRES_MIN_ALARM 0 0 = 0.000000E+000
DBI_RLF_OIL_PRES_MAX_ALARM 0 0 = 0.000000E+000
DBI_RLF_PULSES_PER_MINUTE 0 0 = 1
DBI_RLF_MEASURE_DELAYTIME 0 0 = 1
DBI_RLF_DRILLSTOP_DELAYTIME 0 0 = 1
DBI_RLF_LUBR_PULSE_TIME 0 0 = 300
DBI_COMPRESSOR_LEVEL_ON 0 0 = 4.000000E+000
DBI_COMPRESSOR_LEVEL_OFF 0 0 = 5.000000E+000
DBI_COMPRESSOR_LEVEL_FAILURE 0 0 = 2.000000E+000
DBI_RIG_HYDOIL_TEMP_COOLER 0 0 = 50
DBI_RIG_HYDOIL_TEMP_WARNING 0 0 = 60
DBI_RIG_HYDOIL_TEMP_SHUTDOWN 0 0 = 70
DBI_RIG_HYDOIL_LOWEST_TEMP 0 0 = 40
DBI_RIG_HYDOIL_TEMP_INC_COOLING 0 0 = 5
DBI_OLS_SINK_DIFF 0 0 = 0.000000E+000
DBI_OLS_MOVE_SINK_DIFF 0 0 = 0.000000E+000
DBI_OLS_OIL_LEVEL_FILTER_CONST 0 0 = 1.000000E+000
DBI_RIG_ALLOCATION_TIMEOUT 0 0 = 10000
DBI_WLAN_ENCRYPTION_KEY_4_OID 0 0 = 2E332E31
DBI_WLAN_ENCRYPTION_KEY_4_OID 0 1 = 2E312E36
DBI_WLAN_ENCRYPTION_KEY_4_OID 0 2 = 2E312E34
DBI_WLAN_ENCRYPTION_KEY_4_OID 0 3 = 332E3334
DBI_WLAN_ENCRYPTION_KEY_4_OID 0 4 = 2E312E35
DBI_WLAN_ENCRYPTION_KEY_4_OID 0 5 = 2E312E37
DBI_WLAN_ENCRYPTION_KEY_4_OID 0 6 = 2E342E32
DBI_WLAN_ENCRYPTION_KEY_4_OID 0 7 = 312E3331
DBI_WLAN_ENCRYPTION_KEY_4_OID 0 8 = 332E372E
DBI_WLAN_ENCRYPTION_KEY_4_OID 0 9 = 00000000
DBI_WLAN_ENCRYPTION_KEY_4_OID 0 10 = 00000000
DBI_WLAN_ENCRYPTION_KEY_3_OID 0 0 = 2E332E31
DBI_WLAN_ENCRYPTION_KEY_3_OID 0 1 = 2E312E36
DBI_WLAN_ENCRYPTION_KEY_3_OID 0 2 = 2E312E34
DBI_WLAN_ENCRYPTION_KEY_3_OID 0 3 = 332E3334
DBI_WLAN_ENCRYPTION_KEY_3_OID 0 4 = 2E312E35
DBI_WLAN_ENCRYPTION_KEY_3_OID 0 5 = 2E312E37
DBI_WLAN_ENCRYPTION_KEY_3_OID 0 6 = 2E342E32
DBI_WLAN_ENCRYPTION_KEY_3_OID 0 7 = 312E3331
DBI_WLAN_ENCRYPTION_KEY_3_OID 0 8 = 332E362E
DBI_WLAN_ENCRYPTION_KEY_3_OID 0 9 = 00000000
DBI_WLAN_ENCRYPTION_KEY_3_OID 0 10 = 00000000
DBI_WLAN_ENCRYPTION_KEY_2_OID 0 0 = 2E332E31
DBI_WLAN_ENCRYPTION_KEY_2_OID 0 1 = 2E312E36
DBI_WLAN_ENCRYPTION_KEY_2_OID 0 2 = 2E312E34
DBI_WLAN_ENCRYPTION_KEY_2_OID 0 3 = 332E3334
DBI_WLAN_ENCRYPTION_KEY_2_OID 0 4 = 2E312E35
DBI_WLAN_ENCRYPTION_KEY_2_OID 0 5 = 2E312E37
DBI_WLAN_ENCRYPTION_KEY_2_OID 0 6 = 2E342E32
DBI_WLAN_ENCRYPTION_KEY_2_OID 0 7 = 312E3331
DBI_WLAN_ENCRYPTION_KEY_2_OID 0 8 = 332E352E
DBI_WLAN_ENCRYPTION_KEY_2_OID 0 9 = 00000000
DBI_WLAN_ENCRYPTION_KEY_2_OID 0 10 = 00000000
DBI_WLAN_ENCRYPTION_KEY_1_OID 0 0 = 2E332E31
DBI_WLAN_ENCRYPTION_KEY_1_OID 0 1 = 2E312E36
DBI_WLAN_ENCRYPTION_KEY_1_OID 0 2 = 2E312E34
DBI_WLAN_ENCRYPTION_KEY_1_OID 0 3 = 332E3334
DBI_WLAN_ENCRYPTION_KEY_1_OID 0 4 = 2E312E35
DBI_WLAN_ENCRYPTION_KEY_1_OID 0 5 = 2E312E37
DBI_WLAN_ENCRYPTION_KEY_1_OID 0 6 = 2E342E32
DBI_WLAN_ENCRYPTION_KEY_1_OID 0 7 = 312E3331
DBI_WLAN_ENCRYPTION_KEY_1_OID 0 8 = 332E342E
DBI_WLAN_ENCRYPTION_KEY_1_OID 0 9 = 00000000
DBI_WLAN_ENCRYPTION_KEY_1_OID 0 10 = 00000000
DBI_WLAN_TRANSMIT_KEY_OID 0 0 = 2E332E31
DBI_WLAN_TRANSMIT_KEY_OID 0 1 = 2E312E36
DBI_WLAN_TRANSMIT_KEY_OID 0 2 = 2E312E34
DBI_WLAN_TRANSMIT_KEY_OID 0 3 = 332E3334
DBI_WLAN_TRANSMIT_KEY_OID 0 4 = 2E312E35
DBI_WLAN_TRANSMIT_KEY_OID 0 5 = 2E312E37
DBI_WLAN_TRANSMIT_KEY_OID 0 6 = 2E342E32
DBI_WLAN_TRANSMIT_KEY_OID 0 7 = 312E3331
DBI_WLAN_TRANSMIT_KEY_OID 0 8 = 332E332E
DBI_WLAN_TRANSMIT_KEY_OID 0 9 = 00000000
DBI_WLAN_TRANSMIT_KEY_OID 0 10 = 00000000
DBI_WLAN_STATION_NAME_OID 0 0 = 2E332E31
DBI_WLAN_STATION_NAME_OID 0 1 = 2E312E36
DBI_WLAN_STATION_NAME_OID 0 2 = 2E312E32
DBI_WLAN_STATION_NAME_OID 0 3 = 2E352E31
DBI_WLAN_STATION_NAME_OID 0 4 = 00000030
DBI_WLAN_STATION_NAME_OID 0 5 = 00000000
DBI_WLAN_STATION_NAME_OID 0 6 = 00000000
DBI_WLAN_STATION_NAME_OID 0 7 = 00000000
DBI_WLAN_STATION_NAME_OID 0 8 = 00000000
DBI_WLAN_STATION_NAME_OID 0 9 = 00000000
DBI_WLAN_STATION_NAME_OID 0 10 = 00000000
DBI_WLAN_WEP_ENCRYPTION_OID 0 0 = 2E332E31
DBI_WLAN_WEP_ENCRYPTION_OID 0 1 = 2E312E36
DBI_WLAN_WEP_ENCRYPTION_OID 0 2 = 2E312E34
DBI_WLAN_WEP_ENCRYPTION_OID 0 3 = 332E3334
DBI_WLAN_WEP_ENCRYPTION_OID 0 4 = 2E312E35
DBI_WLAN_WEP_ENCRYPTION_OID 0 5 = 2E312E37
DBI_WLAN_WEP_ENCRYPTION_OID 0 6 = 2E342E32
DBI_WLAN_WEP_ENCRYPTION_OID 0 7 = 312E3331
DBI_WLAN_WEP_ENCRYPTION_OID 0 8 = 332E312E
DBI_WLAN_WEP_ENCRYPTION_OID 0 9 = 00000000
DBI_WLAN_WEP_ENCRYPTION_OID 0 10 = 00000000
DBI_WLAN_WEP_KEY_TYPE 0 0 = 0
DBI_WLAN_USE_SNMP 0 0 = 1
DBI_WLAN_KEY_IN_ASCII 0 0 = 1
DBI_WLAN_ENCRYPTION_KEY_4 0 0 = 00000000
DBI_WLAN_ENCRYPTION_KEY_4 0 1 = 00000000
DBI_WLAN_ENCRYPTION_KEY_4 0 2 = 00000000
DBI_WLAN_ENCRYPTION_KEY_4 0 3 = 00000000
DBI_WLAN_ENCRYPTION_KEY_4 0 4 = 00000000
DBI_WLAN_ENCRYPTION_KEY_4 0 5 = 00000000
DBI_WLAN_ENCRYPTION_KEY_4 0 6 = 00000000
DBI_WLAN_ENCRYPTION_KEY_4 0 7 = 00000000
DBI_WLAN_ENCRYPTION_KEY_4 0 8 = 00000000
DBI_WLAN_ENCRYPTION_KEY_4 0 9 = 00000000
DBI_WLAN_ENCRYPTION_KEY_4 0 10 = 00000000
DBI_WLAN_ENCRYPTION_KEY_4 0 11 = 00000000
DBI_WLAN_ENCRYPTION_KEY_4 0 12 = 00000000
DBI_WLAN_ENCRYPTION_KEY_4 0 13 = 00000000
DBI_WLAN_ENCRYPTION_KEY_4 0 14 = 00000000
DBI_WLAN_ENCRYPTION_KEY_3 0 0 = 00000000
DBI_WLAN_ENCRYPTION_KEY_3 0 1 = 00000000
DBI_WLAN_ENCRYPTION_KEY_3 0 2 = 00000000
DBI_WLAN_ENCRYPTION_KEY_3 0 3 = 00000000
DBI_WLAN_ENCRYPTION_KEY_3 0 4 = 00000000
DBI_WLAN_ENCRYPTION_KEY_3 0 5 = 00000000
DBI_WLAN_ENCRYPTION_KEY_3 0 6 = 00000000
DBI_WLAN_ENCRYPTION_KEY_3 0 7 = 00000000
DBI_WLAN_ENCRYPTION_KEY_3 0 8 = 00000000
DBI_WLAN_ENCRYPTION_KEY_3 0 9 = 00000000
DBI_WLAN_ENCRYPTION_KEY_3 0 10 = 00000000
DBI_WLAN_ENCRYPTION_KEY_3 0 11 = 00000000
DBI_WLAN_ENCRYPTION_KEY_3 0 12 = 00000000
DBI_WLAN_ENCRYPTION_KEY_3 0 13 = 00000000
DBI_WLAN_ENCRYPTION_KEY_3 0 14 = 00000000
DBI_WLAN_ENCRYPTION_KEY_2 0 0 = 00000000
DBI_WLAN_ENCRYPTION_KEY_2 0 1 = 00000000
DBI_WLAN_ENCRYPTION_KEY_2 0 2 = 00000000
DBI_WLAN_ENCRYPTION_KEY_2 0 3 = 00000000
DBI_WLAN_ENCRYPTION_KEY_2 0 4 = 00000000
DBI_WLAN_ENCRYPTION_KEY_2 0 5 = 00000000
DBI_WLAN_ENCRYPTION_KEY_2 0 6 = 00000000
DBI_WLAN_ENCRYPTION_KEY_2 0 7 = 00000000
DBI_WLAN_ENCRYPTION_KEY_2 0 8 = 00000000
DBI_WLAN_ENCRYPTION_KEY_2 0 9 = 00000000
DBI_WLAN_ENCRYPTION_KEY_2 0 10 = 00000000
DBI_WLAN_ENCRYPTION_KEY_2 0 11 = 00000000
DBI_WLAN_ENCRYPTION_KEY_2 0 12 = 00000000
DBI_WLAN_ENCRYPTION_KEY_2 0 13 = 00000000
DBI_WLAN_ENCRYPTION_KEY_2 0 14 = 00000000
DBI_WLAN_ENCRYPTION_KEY_1 0 0 = 00000000
DBI_WLAN_ENCRYPTION_KEY_1 0 1 = 00000000
DBI_WLAN_ENCRYPTION_KEY_1 0 2 = 00000000
DBI_WLAN_ENCRYPTION_KEY_1 0 3 = 00000000
DBI_WLAN_ENCRYPTION_KEY_1 0 4 = 00000000
DBI_WLAN_ENCRYPTION_KEY_1 0 5 = 00000000
DBI_WLAN_ENCRYPTION_KEY_1 0 6 = 00000000
DBI_WLAN_ENCRYPTION_KEY_1 0 7 = 00000000
DBI_WLAN_ENCRYPTION_KEY_1 0 8 = 00000000
DBI_WLAN_ENCRYPTION_KEY_1 0 9 = 00000000
DBI_WLAN_ENCRYPTION_KEY_1 0 10 = 00000000
DBI_WLAN_ENCRYPTION_KEY_1 0 11 = 00000000
DBI_WLAN_ENCRYPTION_KEY_1 0 12 = 00000000
DBI_WLAN_ENCRYPTION_KEY_1 0 13 = 00000000
DBI_WLAN_ENCRYPTION_KEY_1 0 14 = 00000000
DBI_WLAN_TRANSMIT_KEY 0 0 = 0
DBI_WLAN_ENABLE_ENCRYPTION 0 0 = 0
DBI_WLAN_STATION_NAME 0 0 = 00430033
DBI_WLAN_STATION_NAME 0 1 = 006D006F
DBI_WLAN_STATION_NAME 0 2 = 00450020
DBI_WLAN_STATION_NAME 0 3 = 00420043
DBI_WLAN_STATION_NAME 0 4 = 00000000
DBI_WLAN_STATION_NAME 0 5 = 00000000
DBI_WLAN_STATION_NAME 0 6 = 00000000
DBI_WLAN_STATION_NAME 0 7 = 00000000
DBI_WLAN_STATION_NAME 0 8 = 00000000
DBI_WLAN_STATION_NAME 0 9 = 00000000
DBI_WLAN_STATION_NAME 0 10 = 00000000
DBI_WLAN_STATION_NAME 0 11 = 00000000
DBI_WLAN_STATION_NAME 0 12 = 00000000
DBI_WLAN_STATION_NAME 0 13 = 00000000
DBI_WLAN_STATION_NAME 0 14 = 00000000
DBI_WLAN_STATION_NAME 0 15 = 00000000
DBI_WLAN_STATION_NAME 0 16 = 00000000
DBI_WLAN_SSID 0 0 = 004E0041
DBI_WLAN_SSID 0 1 = 00000059
DBI_WLAN_SSID 0 2 = 00000000
DBI_WLAN_SSID 0 3 = 00000000
DBI_WLAN_SSID 0 4 = 00000000
DBI_WLAN_SSID 0 5 = 00000000
DBI_WLAN_SSID 0 6 = 00000000
DBI_WLAN_SSID 0 7 = 00000000
DBI_WLAN_SSID 0 8 = 00000000
DBI_WLAN_SSID 0 9 = 00000000
DBI_WLAN_SSID 0 10 = 00000000
DBI_WLAN_SSID 0 11 = 00000000
DBI_WLAN_SSID 0 12 = 00000000
DBI_WLAN_SSID 0 13 = 00000000
DBI_WLAN_SSID 0 14 = 00000000
DBI_WLAN_SSID 0 15 = 00000000
DBI_WLAN_SSID 0 16 = 00000000
DBI_WLAN_IN_WLAN_MODE 0 0 = 0
DBI_WLAN_TCPIP_DG 0 0 = 0
DBI_WLAN_TCPIP_DG 0 1 = 0
DBI_WLAN_TCPIP_DG 0 2 = 0
DBI_WLAN_TCPIP_DG 0 3 = 0
DBI_WLAN_TCPIP_MASK 0 0 = 0
DBI_WLAN_TCPIP_MASK 0 1 = 0
DBI_WLAN_TCPIP_MASK 0 2 = 0
DBI_WLAN_TCPIP_MASK 0 3 = 0
DBI_WLAN_TCPIP_IP 0 0 = 0
DBI_WLAN_TCPIP_IP 0 1 = 0
DBI_WLAN_TCPIP_IP 0 2 = 0
DBI_WLAN_TCPIP_IP 0 3 = 0
DBI_LOGIN_TIMEOUT 0 0 = 3600
DBI_LOGIN_TIMEOUT 0 1 = 3600
DBI_LOGIN_TIMEOUT 0 2 = 3600
DBI_LOGIN_TIMEOUT 0 3 = 3600
DBI_LOGIN_AC_PASSWD 0 0 = 0
DBI_LOGIN_AC_PASSWD 0 1 = 0
DBI_LOGIN_AC_PASSWD 0 2 = 0
DBI_LOGIN_AC_PASSWD 0 3 = 0
DBI_LOGIN_SE_PASSWD 0 0 = 0
DBI_LOGIN_SE_PASSWD 0 1 = 0
DBI_LOGIN_SE_PASSWD 0 2 = 0
DBI_LOGIN_SE_PASSWD 0 3 = 0
DBI_LOGIN_OP_PASSWD 0 0 = 0
DBI_LOGIN_OP_PASSWD 0 1 = 0
DBI_LOGIN_OP_PASSWD 0 2 = 0
DBI_LOGIN_OP_PASSWD 0 3 = 0
DBI_LOGIN_OP_REQUIRED 0 0 = 0
DBI_LOGIN_LEVEL 0 0 = 3
DBI_TCPIP_CCI_DISC_AGNT_PORT 0 0 = 5289
DBI_TCPIP_CCI_USE_DYN_SERV_ADDR 0 0 = 0
DBI_TCPIP_CCI_SERVER_IP_USER_DEF 0 0 = 0
DBI_TCPIP_CCI_SERVER_IP_USER_DEF 0 1 = 0
DBI_TCPIP_CCI_SERVER_IP_USER_DEF 0 2 = 0
DBI_TCPIP_CCI_SERVER_IP_USER_DEF 0 3 = 0
DBI_TCPIP_CCI_IP_ETHERCARD 0 0 = 2
DBI_TCPIP_LEFT_CCIC_MENU_SWITCH 0 0 = 0
DBI_TCPIP_CCI_IP_RB_USE_DEFAULT 0 0 = 1
DBI_TCPIP_CCI_IP_RB_CHOICE 0 0 = 0
DBI_TCPIP_DG_USER_DEF 0 0 = 0
DBI_TCPIP_DG_USER_DEF 0 1 = 0
DBI_TCPIP_DG_USER_DEF 0 2 = 0
DBI_TCPIP_DG_USER_DEF 0 3 = 0
DBI_TCPIP_MASK_USER_DEF 0 0 = 0
DBI_TCPIP_MASK_USER_DEF 0 1 = 0
DBI_TCPIP_MASK_USER_DEF 0 2 = 0
DBI_TCPIP_MASK_USER_DEF 0 3 = 0
DBI_TCPIP_IP_USER_DEF 0 0 = 0
DBI_TCPIP_IP_USER_DEF 0 1 = 0
DBI_TCPIP_IP_USER_DEF 0 2 = 0
DBI_TCPIP_IP_USER_DEF 0 3 = 0
DBI_TCPIP_DG_DEFAULT 0 0 = 10
DBI_TCPIP_DG_DEFAULT 0 1 = 48
DBI_TCPIP_DG_DEFAULT 0 2 = 132
DBI_TCPIP_DG_DEFAULT 0 3 = 1
DBI_TCPIP_MASK_DEFAULT 0 0 = 255
DBI_TCPIP_MASK_DEFAULT 0 1 = 255
DBI_TCPIP_MASK_DEFAULT 0 2 = 252
DBI_TCPIP_MASK_DEFAULT 0 3 = 0
DBI_TCPIP_IP_DEFAULT 0 0 = 10
DBI_TCPIP_IP_DEFAULT 0 1 = 48
DBI_TCPIP_IP_DEFAULT 0 2 = 132
DBI_TCPIP_IP_DEFAULT 0 3 = 151
DBI_LS_MBOX_INFO_D 0 0 = 1
DBI_LS_MBOX_INFO_C 0 0 = 1
DBI_LS_MBOX_INFO_B 0 0 = 0
DBI_LS_MBOX_INFO_A 0 0 = 1
DBI_LS_MAINTEN_D 0 0 = 1
DBI_LS_MAINTEN_C 0 0 = 0
DBI_LS_MAINTEN_B 0 0 = 0
DBI_LS_MAINTEN_A 0 0 = 0
DBI_LS_QUALITY_D 0 0 = 1
DBI_LS_QUALITY_C 0 0 = 0
DBI_LS_QUALITY_B 0 0 = 1
DBI_LS_QUALITY_A 0 0 = 0
DBI_LS_CAN_D 0 0 = 0
DBI_LS_CAN_C 0 0 = 0
DBI_LS_CAN_B 0 0 = 0
DBI_LS_CAN_A 0 0 = 0
DBI_LS_DEVELOP_D 0 0 = 0
DBI_LS_DEVELOP_C 0 0 = 1
DBI_LS_DEVELOP_B 0 0 = 0
DBI_LS_DEVELOP_A 0 0 = 0
DBI_LS_AUTO_D 0 0 = 0
DBI_LS_AUTO_C 0 0 = 1
DBI_LS_AUTO_B 0 0 = 0
DBI_LS_AUTO_A 0 0 = 0
DBI_LS_ASSERT_D 0 0 = 1
DBI_LS_ASSERT_C 0 0 = 1
DBI_LS_ASSERT_B 0 0 = 0
DBI_LS_ASSERT_A 0 0 = 1
DBI_LS_PARAM_D 0 0 = 0
DBI_LS_PARAM_C 0 0 = 0
DBI_LS_PARAM_B 0 0 = 0
DBI_LS_PARAM_A 0 0 = 0
DBI_LS_EVENT_D 0 0 = 1
DBI_LS_EVENT_C 0 0 = 1
DBI_LS_EVENT_B 0 0 = 0
DBI_LS_EVENT_A 0 0 = 0
DBI_LS_STAT_D 0 0 = 1
DBI_LS_STAT_C 0 0 = 1
DBI_LS_STAT_B 0 0 = 1
DBI_LS_STAT_A 0 0 = 0
DBI_DEC_LEVER_L_OVERRIDE_Z 0 0 = -1.000000E+000
DBI_DEC_LEVER_L_OVERRIDE_Z 0 1 = -1.000000E+000
DBI_DEC_LEVER_L_OVERRIDE_Z 0 2 = -1.000000E+000
DBI_DEC_LEVER_L_OVERRIDE_Z 0 3 = -1.000000E+000
DBI_DEC_LEVER_L_OVERRIDE_Z 0 4 = -1.000000E+000
DBI_DEC_LEVER_L_OVERRIDE_Z 0 5 = -1.000000E+000
DBI_DEC_LEVER_L_OVERRIDE_Z 0 6 = -1.000000E+000
DBI_DEC_LEVER_L_OVERRIDE_Z 0 7 = -1.000000E+000
DBI_DEC_LEVER_L_OVERRIDE_Z 0 8 = -1.000000E+000
DBI_DEC_LEVER_L_OVERRIDE_Z 0 9 = -1.000000E+000
DBI_DEC_LEVER_L_OVERRIDE_Z 0 10 = -1.000000E+000
DBI_DEC_LEVER_L_OVERRIDE_Z 0 11 = -1.000000E+000
DBI_DEC_LEVER_L_OVERRIDE_Y 0 0 = -1.000000E+000
DBI_DEC_LEVER_L_OVERRIDE_Y 0 1 = -1.000000E+000
DBI_DEC_LEVER_L_OVERRIDE_Y 0 2 = -1.000000E+000
DBI_DEC_LEVER_L_OVERRIDE_Y 0 3 = -1.000000E+000
DBI_DEC_LEVER_L_OVERRIDE_Y 0 4 = -1.000000E+000
DBI_DEC_LEVER_L_OVERRIDE_Y 0 5 = -1.000000E+000
DBI_DEC_LEVER_L_OVERRIDE_Y 0 6 = -1.000000E+000
DBI_DEC_LEVER_L_OVERRIDE_Y 0 7 = -1.000000E+000
DBI_DEC_LEVER_L_OVERRIDE_Y 0 8 = -1.000000E+000
DBI_DEC_LEVER_L_OVERRIDE_Y 0 9 = -1.000000E+000
DBI_DEC_LEVER_L_OVERRIDE_Y 0 10 = -1.000000E+000
DBI_DEC_LEVER_L_OVERRIDE_Y 0 11 = -1.000000E+000
DBI_DEC_LEVER_L_OVERRIDE_X 0 0 = -1.000000E+000
DBI_DEC_LEVER_L_OVERRIDE_X 0 1 = -1.000000E+000
DBI_DEC_LEVER_L_OVERRIDE_X 0 2 = -1.000000E+000
DBI_DEC_LEVER_L_OVERRIDE_X 0 3 = -1.000000E+000
DBI_DEC_LEVER_L_OVERRIDE_X 0 4 = -1.000000E+000
DBI_DEC_LEVER_L_OVERRIDE_X 0 5 = -1.000000E+000
DBI_DEC_LEVER_L_OVERRIDE_X 0 6 = -1.000000E+000
DBI_DEC_LEVER_L_OVERRIDE_X 0 7 = -1.000000E+000
DBI_DEC_LEVER_L_OVERRIDE_X 0 8 = -1.000000E+000
DBI_DEC_LEVER_L_OVERRIDE_X 0 9 = -1.000000E+000
DBI_DEC_LEVER_L_OVERRIDE_X 0 10 = -1.000000E+000
DBI_DEC_LEVER_L_OVERRIDE_X 0 11 = -1.000000E+000
DBI_DEC_LEVER_ZERO_Z 0 0 = 127
DBI_DEC_LEVER_ZERO_Z 0 1 = 127
DBI_DEC_LEVER_ZERO_Z 0 2 = 127
DBI_DEC_LEVER_ZERO_Z 0 3 = 127
DBI_DEC_LEVER_ZERO_Z 0 4 = 127
DBI_DEC_LEVER_ZERO_Z 0 5 = 127
DBI_DEC_LEVER_ZERO_Z 0 6 = 127
DBI_DEC_LEVER_ZERO_Z 0 7 = 127
DBI_DEC_LEVER_ZERO_Z 0 8 = 127
DBI_DEC_LEVER_ZERO_Z 0 9 = 127
DBI_DEC_LEVER_ZERO_Z 0 10 = 127
DBI_DEC_LEVER_ZERO_Z 0 11 = 127
DBI_DEC_LEVER_ZERO_Y 0 0 = 127
DBI_DEC_LEVER_ZERO_Y 0 1 = 127
DBI_DEC_LEVER_ZERO_Y 0 2 = 127
DBI_DEC_LEVER_ZERO_Y 0 3 = 127
DBI_DEC_LEVER_ZERO_Y 0 4 = 127
DBI_DEC_LEVER_ZERO_Y 0 5 = 127
DBI_DEC_LEVER_ZERO_Y 0 6 = 127
DBI_DEC_LEVER_ZERO_Y 0 7 = 127
DBI_DEC_LEVER_ZERO_Y 0 8 = 127
DBI_DEC_LEVER_ZERO_Y 0 9 = 127
DBI_DEC_LEVER_ZERO_Y 0 10 = 127
DBI_DEC_LEVER_ZERO_Y 0 11 = 127
DBI_DEC_LEVER_ZERO_X 0 0 = 127
DBI_DEC_LEVER_ZERO_X 0 1 = 127
DBI_DEC_LEVER_ZERO_X 0 2 = 127
DBI_DEC_LEVER_ZERO_X 0 3 = 127
DBI_DEC_LEVER_ZERO_X 0 4 = 127
DBI_DEC_LEVER_ZERO_X 0 5 = 127
DBI_DEC_LEVER_ZERO_X 0 6 = 127
DBI_DEC_LEVER_ZERO_X 0 7 = 127
DBI_DEC_LEVER_ZERO_X 0 8 = 127
DBI_DEC_LEVER_ZERO_X 0 9 = 127
DBI_DEC_LEVER_ZERO_X 0 10 = 127
DBI_DEC_LEVER_ZERO_X 0 11 = 127
DBI_DEC_LEVER_KNEG_Z 0 0 = 1.000000E+000
DBI_DEC_LEVER_KNEG_Z 0 1 = 1.000000E+000
DBI_DEC_LEVER_KNEG_Z 0 2 = 1.000000E+000
DBI_DEC_LEVER_KNEG_Z 0 3 = 1.000000E+000
DBI_DEC_LEVER_KNEG_Z 0 4 = 1.000000E+000
DBI_DEC_LEVER_KNEG_Z 0 5 = 1.000000E+000
DBI_DEC_LEVER_KNEG_Z 0 6 = 1.000000E+000
DBI_DEC_LEVER_KNEG_Z 0 7 = 1.000000E+000
DBI_DEC_LEVER_KNEG_Z 0 8 = 1.000000E+000
DBI_DEC_LEVER_KNEG_Z 0 9 = 1.000000E+000
DBI_DEC_LEVER_KNEG_Z 0 10 = 1.000000E+000
DBI_DEC_LEVER_KNEG_Z 0 11 = 1.000000E+000
DBI_DEC_LEVER_KNEG_Y 0 0 = 1.000000E+000
DBI_DEC_LEVER_KNEG_Y 0 1 = 1.000000E+000
DBI_DEC_LEVER_KNEG_Y 0 2 = 1.000000E+000
DBI_DEC_LEVER_KNEG_Y 0 3 = 1.000000E+000
DBI_DEC_LEVER_KNEG_Y 0 4 = 1.000000E+000
DBI_DEC_LEVER_KNEG_Y 0 5 = 1.000000E+000
DBI_DEC_LEVER_KNEG_Y 0 6 = 1.000000E+000
DBI_DEC_LEVER_KNEG_Y 0 7 = 1.000000E+000
DBI_DEC_LEVER_KNEG_Y 0 8 = 1.000000E+000
DBI_DEC_LEVER_KNEG_Y 0 9 = 1.000000E+000
DBI_DEC_LEVER_KNEG_Y 0 10 = 1.000000E+000
DBI_DEC_LEVER_KNEG_Y 0 11 = 1.000000E+000
DBI_DEC_LEVER_KNEG_X 0 0 = 1.000000E+000
DBI_DEC_LEVER_KNEG_X 0 1 = 1.000000E+000
DBI_DEC_LEVER_KNEG_X 0 2 = 1.000000E+000
DBI_DEC_LEVER_KNEG_X 0 3 = 1.000000E+000
DBI_DEC_LEVER_KNEG_X 0 4 = 1.000000E+000
DBI_DEC_LEVER_KNEG_X 0 5 = 1.000000E+000
DBI_DEC_LEVER_KNEG_X 0 6 = 1.000000E+000
DBI_DEC_LEVER_KNEG_X 0 7 = 1.000000E+000
DBI_DEC_LEVER_KNEG_X 0 8 = 1.000000E+000
DBI_DEC_LEVER_KNEG_X 0 9 = 1.000000E+000
DBI_DEC_LEVER_KNEG_X 0 10 = 1.000000E+000
DBI_DEC_LEVER_KNEG_X 0 11 = 1.000000E+000
DBI_DEC_LEVER_KPOS_Z 0 0 = 1.000000E+000
DBI_DEC_LEVER_KPOS_Z 0 1 = 1.000000E+000
DBI_DEC_LEVER_KPOS_Z 0 2 = 1.000000E+000
DBI_DEC_LEVER_KPOS_Z 0 3 = 1.000000E+000
DBI_DEC_LEVER_KPOS_Z 0 4 = 1.000000E+000
DBI_DEC_LEVER_KPOS_Z 0 5 = 1.000000E+000
DBI_DEC_LEVER_KPOS_Z 0 6 = 1.000000E+000
DBI_DEC_LEVER_KPOS_Z 0 7 = 1.000000E+000
DBI_DEC_LEVER_KPOS_Z 0 8 = 1.000000E+000
DBI_DEC_LEVER_KPOS_Z 0 9 = 1.000000E+000
DBI_DEC_LEVER_KPOS_Z 0 10 = 1.000000E+000
DBI_DEC_LEVER_KPOS_Z 0 11 = 1.000000E+000
DBI_DEC_LEVER_KPOS_Y 0 0 = 1.000000E+000
DBI_DEC_LEVER_KPOS_Y 0 1 = 1.000000E+000
DBI_DEC_LEVER_KPOS_Y 0 2 = 1.000000E+000
DBI_DEC_LEVER_KPOS_Y 0 3 = 1.000000E+000
DBI_DEC_LEVER_KPOS_Y 0 4 = 1.000000E+000
DBI_DEC_LEVER_KPOS_Y 0 5 = 1.000000E+000
DBI_DEC_LEVER_KPOS_Y 0 6 = 1.000000E+000
DBI_DEC_LEVER_KPOS_Y 0 7 = 1.000000E+000
DBI_DEC_LEVER_KPOS_Y 0 8 = 1.000000E+000
DBI_DEC_LEVER_KPOS_Y 0 9 = 1.000000E+000
DBI_DEC_LEVER_KPOS_Y 0 10 = 1.000000E+000
DBI_DEC_LEVER_KPOS_Y 0 11 = 1.000000E+000
DBI_DEC_LEVER_KPOS_X 0 0 = 0.000000E+000
DBI_DEC_LEVER_KPOS_X 0 1 = 0.000000E+000
DBI_DEC_LEVER_KPOS_X 0 2 = 0.000000E+000
DBI_DEC_LEVER_KPOS_X 0 3 = 0.000000E+000
DBI_DEC_LEVER_KPOS_X 0 4 = 0.000000E+000
DBI_DEC_LEVER_KPOS_X 0 5 = 0.000000E+000
DBI_DEC_LEVER_KPOS_X 0 6 = 0.000000E+000
DBI_DEC_LEVER_KPOS_X 0 7 = 1.000000E+000
DBI_DEC_LEVER_KPOS_X 0 8 = 1.000000E+000
DBI_DEC_LEVER_KPOS_X 0 9 = 1.000000E+000
DBI_DEC_LEVER_KPOS_X 0 10 = 1.000000E+000
DBI_DEC_LEVER_KPOS_X 0 11 = 1.000000E+000
DBI_LEVER_L_OVERRIDE_Z 0 0 = 0.000000E+000
DBI_LEVER_L_OVERRIDE_Z 0 1 = -1.000000E+000
DBI_LEVER_L_OVERRIDE_Z 0 2 = -1.000000E+000
DBI_LEVER_L_OVERRIDE_Z 0 3 = -1.000000E+000
DBI_LEVER_L_OVERRIDE_Z 0 4 = -1.000000E+000
DBI_LEVER_L_OVERRIDE_Z 0 5 = -1.000000E+000
DBI_LEVER_L_OVERRIDE_Z 0 6 = -1.000000E+000
DBI_LEVER_L_OVERRIDE_Z 0 7 = -1.000000E+000
DBI_LEVER_L_OVERRIDE_Z 0 8 = -1.000000E+000
DBI_LEVER_L_OVERRIDE_Z 0 9 = -1.000000E+000
DBI_LEVER_L_OVERRIDE_Z 0 10 = -1.000000E+000
DBI_LEVER_L_OVERRIDE_Z 0 11 = -1.000000E+000
DBI_LEVER_L_OVERRIDE_Z 0 12 = -1.000000E+000
DBI_LEVER_L_OVERRIDE_Z 0 13 = -1.000000E+000
DBI_LEVER_L_OVERRIDE_Z 0 14 = -1.000000E+000
DBI_LEVER_L_OVERRIDE_Z 0 15 = -1.000000E+000
DBI_LEVER_L_OVERRIDE_Y 0 0 = 0.000000E+000
DBI_LEVER_L_OVERRIDE_Y 0 1 = -1.000000E+000
DBI_LEVER_L_OVERRIDE_Y 0 2 = -1.000000E+000
DBI_LEVER_L_OVERRIDE_Y 0 3 = -1.000000E+000
DBI_LEVER_L_OVERRIDE_Y 0 4 = -1.000000E+000
DBI_LEVER_L_OVERRIDE_Y 0 5 = -1.000000E+000
DBI_LEVER_L_OVERRIDE_Y 0 6 = -1.000000E+000
DBI_LEVER_L_OVERRIDE_Y 0 7 = -1.000000E+000
DBI_LEVER_L_OVERRIDE_Y 0 8 = -1.000000E+000
DBI_LEVER_L_OVERRIDE_Y 0 9 = -1.000000E+000
DBI_LEVER_L_OVERRIDE_Y 0 10 = -1.000000E+000
DBI_LEVER_L_OVERRIDE_Y 0 11 = -1.000000E+000
DBI_LEVER_L_OVERRIDE_Y 0 12 = -1.000000E+000
DBI_LEVER_L_OVERRIDE_Y 0 13 = -1.000000E+000
DBI_LEVER_L_OVERRIDE_Y 0 14 = -1.000000E+000
DBI_LEVER_L_OVERRIDE_Y 0 15 = -1.000000E+000
DBI_LEVER_L_OVERRIDE_X 0 0 = -1.000000E+000
DBI_LEVER_L_OVERRIDE_X 0 1 = -1.000000E+000
DBI_LEVER_L_OVERRIDE_X 0 2 = -1.000000E+000
DBI_LEVER_L_OVERRIDE_X 0 3 = -1.000000E+000
DBI_LEVER_L_OVERRIDE_X 0 4 = -1.000000E+000
DBI_LEVER_L_OVERRIDE_X 0 5 = -1.000000E+000
DBI_LEVER_L_OVERRIDE_X 0 6 = -1.000000E+000
DBI_LEVER_L_OVERRIDE_X 0 7 = -1.000000E+000
DBI_LEVER_L_OVERRIDE_X 0 8 = -1.000000E+000
DBI_LEVER_L_OVERRIDE_X 0 9 = -1.000000E+000
DBI_LEVER_L_OVERRIDE_X 0 10 = -1.000000E+000
DBI_LEVER_L_OVERRIDE_X 0 11 = -1.000000E+000
DBI_LEVER_L_OVERRIDE_X 0 12 = -1.000000E+000
DBI_LEVER_L_OVERRIDE_X 0 13 = -1.000000E+000
DBI_LEVER_L_OVERRIDE_X 0 14 = -1.000000E+000
DBI_LEVER_L_OVERRIDE_X 0 15 = -1.000000E+000
DBI_LEVER_ZERO_Z 0 0 = 110
DBI_LEVER_ZERO_Z 0 1 = 72
DBI_LEVER_ZERO_Z 0 2 = 126
DBI_LEVER_ZERO_Z 0 3 = 0
DBI_LEVER_ZERO_Z 0 4 = 0
DBI_LEVER_ZERO_Z 0 5 = 0
DBI_LEVER_ZERO_Z 0 6 = 0
DBI_LEVER_ZERO_Z 0 7 = 0
DBI_LEVER_ZERO_Z 0 8 = 0
DBI_LEVER_ZERO_Z 0 9 = 0
DBI_LEVER_ZERO_Z 0 10 = 0
DBI_LEVER_ZERO_Z 0 11 = 256
DBI_LEVER_ZERO_Z 0 12 = 256
DBI_LEVER_ZERO_Z 0 13 = 256
DBI_LEVER_ZERO_Z 0 14 = 256
DBI_LEVER_ZERO_Z 0 15 = 0
DBI_LEVER_ZERO_Y 0 0 = 95
DBI_LEVER_ZERO_Y 0 1 = 71
DBI_LEVER_ZERO_Y 0 2 = 126
DBI_LEVER_ZERO_Y 0 3 = 254
DBI_LEVER_ZERO_Y 0 4 = 0
DBI_LEVER_ZERO_Y 0 5 = 0
DBI_LEVER_ZERO_Y 0 6 = 0
DBI_LEVER_ZERO_Y 0 7 = 0
DBI_LEVER_ZERO_Y 0 8 = 0
DBI_LEVER_ZERO_Y 0 9 = 0
DBI_LEVER_ZERO_Y 0 10 = 0
DBI_LEVER_ZERO_Y 0 11 = 0
DBI_LEVER_ZERO_Y 0 12 = 0
DBI_LEVER_ZERO_Y 0 13 = 0
DBI_LEVER_ZERO_Y 0 14 = 0
DBI_LEVER_ZERO_Y 0 15 = 0
DBI_LEVER_ZERO_X 0 0 = 126
DBI_LEVER_ZERO_X 0 1 = 126
DBI_LEVER_ZERO_X 0 2 = 124
DBI_LEVER_ZERO_X 0 3 = 0
DBI_LEVER_ZERO_X 0 4 = 0
DBI_LEVER_ZERO_X 0 5 = 0
DBI_LEVER_ZERO_X 0 6 = 0
DBI_LEVER_ZERO_X 0 7 = 0
DBI_LEVER_ZERO_X 0 8 = 0
DBI_LEVER_ZERO_X 0 9 = 0
DBI_LEVER_ZERO_X 0 10 = 0
DBI_LEVER_ZERO_X 0 11 = 0
DBI_LEVER_ZERO_X 0 12 = 0
DBI_LEVER_ZERO_X 0 13 = 0
DBI_LEVER_ZERO_X 0 14 = 0
DBI_LEVER_ZERO_X 0 15 = 0
DBI_LEVER_KNEG_Z 0 0 = 1.123595E+000
DBI_LEVER_KNEG_Z 0 1 = 5.882353E+000
DBI_LEVER_KNEG_Z 0 2 = 1.086957E+000
DBI_LEVER_KNEG_Z 0 3 = 0.000000E+000
DBI_LEVER_KNEG_Z 0 4 = 0.000000E+000
DBI_LEVER_KNEG_Z 0 5 = 0.000000E+000
DBI_LEVER_KNEG_Z 0 6 = 0.000000E+000
DBI_LEVER_KNEG_Z 0 7 = 0.000000E+000
DBI_LEVER_KNEG_Z 0 8 = 0.000000E+000
DBI_LEVER_KNEG_Z 0 9 = 0.000000E+000
DBI_LEVER_KNEG_Z 0 10 = 0.000000E+000
DBI_LEVER_KNEG_Z 0 11 = 0.000000E+000
DBI_LEVER_KNEG_Z 0 12 = 0.000000E+000
DBI_LEVER_KNEG_Z 0 13 = 0.000000E+000
DBI_LEVER_KNEG_Z 0 14 = 0.000000E+000
DBI_LEVER_KNEG_Z 0 15 = 0.000000E+000
DBI_LEVER_KNEG_Y 0 0 = 1.351351E+000
DBI_LEVER_KNEG_Y 0 1 = 4.545455E+000
DBI_LEVER_KNEG_Y 0 2 = 1.149425E+000
DBI_LEVER_KNEG_Y 0 3 = 0.000000E+000
DBI_LEVER_KNEG_Y 0 4 = 0.000000E+000
DBI_LEVER_KNEG_Y 0 5 = 0.000000E+000
DBI_LEVER_KNEG_Y 0 6 = 0.000000E+000
DBI_LEVER_KNEG_Y 0 7 = 0.000000E+000
DBI_LEVER_KNEG_Y 0 8 = 0.000000E+000
DBI_LEVER_KNEG_Y 0 9 = 0.000000E+000
DBI_LEVER_KNEG_Y 0 10 = 0.000000E+000
DBI_LEVER_KNEG_Y 0 11 = 0.000000E+000
DBI_LEVER_KNEG_Y 0 12 = 0.000000E+000
DBI_LEVER_KNEG_Y 0 13 = 0.000000E+000
DBI_LEVER_KNEG_Y 0 14 = 0.000000E+000
DBI_LEVER_KNEG_Y 0 15 = 0.000000E+000
DBI_LEVER_KNEG_X 0 0 = 1.098901E+000
DBI_LEVER_KNEG_X 0 1 = 1.098901E+000
DBI_LEVER_KNEG_X 0 2 = 1.136364E+000
DBI_LEVER_KNEG_X 0 3 = 0.000000E+000
DBI_LEVER_KNEG_X 0 4 = 0.000000E+000
DBI_LEVER_KNEG_X 0 5 = 0.000000E+000
DBI_LEVER_KNEG_X 0 6 = 0.000000E+000
DBI_LEVER_KNEG_X 0 7 = 0.000000E+000
DBI_LEVER_KNEG_X 0 8 = 0.000000E+000
DBI_LEVER_KNEG_X 0 9 = 0.000000E+000
DBI_LEVER_KNEG_X 0 10 = 0.000000E+000
DBI_LEVER_KNEG_X 0 11 = 0.000000E+000
DBI_LEVER_KNEG_X 0 12 = 0.000000E+000
DBI_LEVER_KNEG_X 0 13 = 0.000000E+000
DBI_LEVER_KNEG_X 0 14 = 0.000000E+000
DBI_LEVER_KNEG_X 0 15 = 0.000000E+000
DBI_LEVER_KPOS_Z 0 0 = 7.936508E-001
DBI_LEVER_KPOS_Z 0 1 = 1.136364E+000
DBI_LEVER_KPOS_Z 0 2 = 1.098901E+000
DBI_LEVER_KPOS_Z 0 3 = 0.000000E+000
DBI_LEVER_KPOS_Z 0 4 = 1.000000E+002
DBI_LEVER_KPOS_Z 0 5 = 2.351061E-038
DBI_LEVER_KPOS_Z 0 6 = 1.836710E-040
DBI_LEVER_KPOS_Z 0 7 = 1.000000E+002
DBI_LEVER_KPOS_Z 0 8 = 1.275789E+001
DBI_LEVER_KPOS_Z 0 9 = 1.000000E+002
DBI_LEVER_KPOS_Z 0 10 = 1.295609E+001
DBI_LEVER_KPOS_Z 0 11 = 1.511023E-013
DBI_LEVER_KPOS_Z 0 12 = 0.000000E+000
DBI_LEVER_KPOS_Z 0 13 = 0.000000E+000
DBI_LEVER_KPOS_Z 0 14 = 0.000000E+000
DBI_LEVER_KPOS_Z 0 15 = 0.000000E+000
DBI_LEVER_KPOS_Y 0 0 = 7.352941E-001
DBI_LEVER_KPOS_Y 0 1 = 1.111111E+000
DBI_LEVER_KPOS_Y 0 2 = 1.136364E+000
DBI_LEVER_KPOS_Y 0 3 = 0.000000E+000
DBI_LEVER_KPOS_Y 0 4 = 1.000000E+000
DBI_LEVER_KPOS_Y 0 5 = 1.000000E+000
DBI_LEVER_KPOS_Y 0 6 = 1.000000E+000
DBI_LEVER_KPOS_Y 0 7 = 1.000000E+000
DBI_LEVER_KPOS_Y 0 8 = 1.000000E+000
DBI_LEVER_KPOS_Y 0 9 = 1.000000E+000
DBI_LEVER_KPOS_Y 0 10 = 1.000000E+000
DBI_LEVER_KPOS_Y 0 11 = 1.000000E+000
DBI_LEVER_KPOS_Y 0 12 = 1.000000E+000
DBI_LEVER_KPOS_Y 0 13 = 1.000000E+000
DBI_LEVER_KPOS_Y 0 14 = 1.000000E+000
DBI_LEVER_KPOS_Y 0 15 = 8.265194E-038
DBI_LEVER_KPOS_X 0 0 = 1.075269E+000
DBI_LEVER_KPOS_X 0 1 = 1.075269E+000
DBI_LEVER_KPOS_X 0 2 = 1.075269E+000
DBI_LEVER_KPOS_X 0 3 = 0.000000E+000
DBI_LEVER_KPOS_X 0 4 = 1.000000E+000
DBI_LEVER_KPOS_X 0 5 = 1.000000E+000
DBI_LEVER_KPOS_X 0 6 = 1.000000E+000
DBI_LEVER_KPOS_X 0 7 = 1.000000E+000
DBI_LEVER_KPOS_X 0 8 = 1.000000E+000
DBI_LEVER_KPOS_X 0 9 = 1.000000E+000
DBI_LEVER_KPOS_X 0 10 = 1.000000E+000
DBI_LEVER_KPOS_X 0 11 = 1.000000E+000
DBI_LEVER_KPOS_X 0 12 = 1.000000E+000
DBI_LEVER_KPOS_X 0 13 = 1.000000E+000
DBI_LEVER_KPOS_X 0 14 = 1.000000E+000
DBI_LEVER_KPOS_X 0 15 = 1.000000E+000
DBI_DEC_ANALOG_LEVER_IS_CALIBRATED 0 0 = 0
DBI_DEC_ANALOG_LEVER_IS_CALIBRATED 0 1 = 0
DBI_DEC_ANALOG_LEVER_IS_CALIBRATED 0 2 = 0
DBI_DEC_ANALOG_LEVER_IS_CALIBRATED 0 3 = 0
DBI_DEC_ANALOG_LEVER_IS_CALIBRATED 0 4 = 0
DBI_DEC_ANALOG_LEVER_IS_CALIBRATED 0 5 = 0
DBI_DEC_ANALOG_LEVER_IS_CALIBRATED 0 6 = 0
DBI_DEC_ANALOG_LEVER_IS_CALIBRATED 0 7 = 0
DBI_DEC_ANALOG_LEVER_IS_CALIBRATED 0 8 = 0
DBI_DEC_ANALOG_LEVER_IS_CALIBRATED 0 9 = 0
DBI_DEC_ANALOG_LEVER_IS_CALIBRATED 0 10 = 0
DBI_DEC_ANALOG_LEVER_IS_CALIBRATED 0 11 = 0
DBI_ANALOG_LEVER_IS_CALIBRATED 0 0 = 1
DBI_ANALOG_LEVER_IS_CALIBRATED 0 1 = 1
DBI_ANALOG_LEVER_IS_CALIBRATED 0 2 = 1
DBI_ANALOG_LEVER_IS_CALIBRATED 0 3 = 1
DBI_ANALOG_LEVER_IS_CALIBRATED 0 4 = 0
DBI_ANALOG_LEVER_IS_CALIBRATED 0 5 = 0
DBI_ANALOG_LEVER_IS_CALIBRATED 0 6 = 0
DBI_ANALOG_LEVER_IS_CALIBRATED 0 7 = 0
DBI_ANALOG_LEVER_IS_CALIBRATED 0 8 = 0
DBI_ANALOG_LEVER_IS_CALIBRATED 0 9 = 0
DBI_ANALOG_LEVER_IS_CALIBRATED 0 10 = 0
DBI_ANALOG_LEVER_IS_CALIBRATED 0 11 = 0
DBI_ANALOG_LEVER_IS_CALIBRATED 0 12 = 0
DBI_ANALOG_LEVER_IS_CALIBRATED 0 13 = 0
DBI_ANALOG_LEVER_IS_CALIBRATED 0 14 = 0
DBI_ANALOG_LEVER_IS_CALIBRATED 0 15 = 0
DBI_DEC_LEVER_IS_IN_CALIB_MODE 0 0 = 0
DBI_DEC_LEVER_IS_IN_CALIB_MODE 0 1 = 0
DBI_DEC_LEVER_IS_IN_CALIB_MODE 0 2 = 0
DBI_DEC_LEVER_IS_IN_CALIB_MODE 0 3 = 0
DBI_DEC_PANEL_IS_CALIBRATED 0 0 = 0
DBI_DEC_PANEL_IS_CALIBRATED 0 1 = 0
DBI_DEC_PANEL_IS_CALIBRATED 0 2 = 0
DBI_DEC_PANEL_IS_CALIBRATED 0 3 = 0
DBI_LEVER_IS_IN_CALIBRATION_MODE 0 0 = 0
DBI_LEVER_IS_IN_CALIBRATION_MODE 0 1 = 0
DBI_LEVER_IS_IN_CALIBRATION_MODE 0 2 = 0
DBI_LEVER_IS_IN_CALIBRATION_MODE 0 3 = 0
DBI_PANEL_IS_CALIBRATED 0 0 = 1
DBI_PANEL_IS_CALIBRATED 0 1 = 0
DBI_PANEL_IS_CALIBRATED 0 2 = 0
DBI_PANEL_IS_CALIBRATED 0 3 = 0
DBI_LEVER_DEADZONE_Z 0 0 = 1.000000E+001
DBI_LEVER_DEADZONE_XY 0 0 = 1.000000E+001
DBI_ECM_ENG_ALL_ACCUM_HOURS 0 0 = 5.215000E+001
DBI_ENGINE_MIN_RUN_RPM 0 0 = 800
DBI_ENGINE_IDLE_RPM 0 0 = 1200
DBI_ENGINE_DRILL_RPM 0 0 = 1800
DBI_INP_K_BIT_SPEED 0 0 = 4.500000E-002
DBI_INP_L_BIT_SPEED 0 0 = 1669
DBI_INP_K_HOLDBACK_PRESS 0 0 = 4.280000E-001
DBI_INP_L_HOLDBACK_PRESS 0 0 = 102
DBI_INP_K_TOWER_ANGLE 0 0 = 1.240000E-001
DBI_INP_L_TOWER_ANGLE 0 0 = 276
DBI_INP_K_HEAD_DISPL_ENCODER 0 0 = -2.240000E-003
DBI_INP_K_RIG_INCL_PITCH 0 0 = 3.000000E-002
DBI_INP_L_RIG_INCL_PITCH 0 0 = 2342
DBI_INP_K_RIG_INCL_ROLL 0 0 = -1.200000E-001
DBI_INP_L_RIG_INCL_ROLL 0 0 = 586
DBI_INP_K_LOWER_TOWER_LAT_VIBR 0 0 = 1.220000E-001
DBI_INP_L_LOWER_TOWER_LAT_VIBR 0 0 = 205
DBI_INP_K_7_SP_INLET_PRESSURE 0 0 = 4.280000E-001
DBI_INP_L_7_SP_INLET_PRESSURE 0 0 = 102
DBI_INP_K_6_SP_INLET_PRESSURE 0 0 = 4.280000E-001
DBI_INP_L_6_SP_INLET_PRESSURE 0 0 = 102
DBI_TOWER_CURRENT_MIN 0 0 = 25
DBI_TOWER_CURRENT_MAX 0 0 = 96
DBI_DUST_FLAPS_START_RAMP_TIME 0 0 = 100
DBI_DUST_FLAPS_STOP_RAMP_TIME 0 0 = 100
DBI_DUST_FLAPS_MAX_OUT_VALUE 0 0 = 100
DBI_DUST_COLL_START_RAMP_TIME 0 0 = 500
DBI_DUST_COLL_STOP_RAMP_TIME 0 0 = 500
DBI_DUST_COLL_MIN_OUT_VALUE 0 0 = 0
DBI_DUST_COLL_MAX_OUT_VALUE 0 0 = 100
DBI_CAROUSEL_SWING_MAX_OUT_VALUE 0 0 = 55
DBI_INP_K_BIT_AIR_PRESS 0 0 = 1.400000E-002
DBI_INP_L_BIT_AIR_PRESS 0 0 = 408
DBI_INP_K_EARS_VACUUM_SENSOR 0 0 = 1.000000E-003
DBI_INP_L_EARS_VACUUM_SENSOR 0 0 = 0
DBI_INP_K_SUPERCHARGE_MAINFOLD_PRESS 0 0 = 6.100000E-002
DBI_INP_L_SUPERCHARGE_MAINFOLD_PRESS 0 0 = 103
DBI_INP_K_LUBE_TANK_LEVEL 0 0 = 1.220000E-001
DBI_INP_L_LUBE_TANK_LEVEL 0 0 = 102
DBI_INP_K_HOIST_MOVE_REMOTE 0 0 = 1.000000E+000
DBI_INP_L_HOIST_MOVE_REMOTE 0 0 = 501
DBI_INP_K_HOIST_ACTIVATION_REMOTE 0 0 = 1.000000E+000
DBI_INP_L_HOIST_ACTIVATION_REMOTE 0 0 = 1
DBI_WRENCH_START_RAMP_TIME 0 0 = 100
DBI_WRENCH_STOP_RAMP_TIME 0 0 = 100
DBI_BREAKOUT_WRENCH_MAX_OUT_VALUE 0 0 = 50
DBI_BREAKOUT_JAW_START_RAMP_TIME 0 0 = 100
DBI_BREAKOUT_JAW_STOP_RAMP_TIME 0 0 = 100
DBI_BREAKOUT_JAW_MAX_OUT_VALUE 0 0 = 100
DBI_FORK_START_RAMP_TIME 0 0 = 40
DBI_FORK_STOP_RAMP_TIME 0 0 = 40
DBI_FORK_MAX_OUT_VALUE 0 0 = 100
DBI_ROD_SUPPORT_ARM_MAX_OUT_OPEN_VALUE 0 0 = 51
DBI_ROD_SUPPORT_ARM_MAX_OUT_CLOSE_VALUE 0 0 = 54
DBI_CAROUSEL_ROTA_MAX_OUT_VALUE 0 0 = 62
DBI_INP_K_WATER_TANK_LEVEL 0 0 = -2.800000E-002
DBI_INP_L_WATER_TANK_LEVEL 0 0 = 3938
DBI_INP_K_AIREND_TEMP_1 0 0 = 2.400000E-001
DBI_INP_L_AIREND_TEMP_1 0 0 = 347
DBI_INP_K_AIREND_TANK_PRESS 0 0 = 6.100000E-002
DBI_INP_L_AIREND_TANK_PRESS 0 0 = 102
DBI_INP_K_FUEL_TANK_LEVEL 0 0 = 1.100000E-001
DBI_INP_L_FUEL_TANK_LEVEL 0 0 = 120
DBI_INP_K_FAN_INLET_PRESS 0 0 = 4.280000E-001
DBI_INP_L_FAN_INLET_PRESS 0 0 = 102
DBI_INP_K_AIREND_TEMP_2 0 0 = 2.400000E-001
DBI_INP_L_AIREND_TEMP_2 0 0 = 347
DBI_INP_K_MAIN_PUMP_PRESS_NCS_A 0 0 = 1.070000E-001
DBI_INP_L_MAIN_PUMP_PRESS_NCS_A 0 0 = 420
DBI_INP_K_MAIN_PUMP_PRESS_NCS_B 0 0 = 4.280000E-001
DBI_INP_L_MAIN_PUMP_PRESS_NCS_B 0 0 = 99
DBI_INP_K_WATER_INJ_PUMP_FLOW 0 0 = 1.150000E-001
DBI_INP_L_WATER_INJ_PUMP_FLOW 0 0 = 413
DBI_INP_K_PROPEL_BREAK_RELEASE 0 0 = 6.100000E-002
DBI_INP_L_PROPEL_BREAK_RELEASE 0 0 = 102
DBI_INP_K_HOT_OIL_SHUTTLE_PRESS_CS 0 0 = 6.100000E-002
DBI_INP_L_HOT_OIL_SHUTTLE_PRESS_CS 0 0 = 102
DBI_INP_K_HOT_OIL_SHUTTLE_PRESS_NCS 0 0 = 6.100000E-002
DBI_INP_L_HOT_OIL_SHUTTLE_PRESS_NCS 0 0 = 102
DBI_INP_K_RETURN_HYD_MAINFOLD_PRESS 0 0 = 6.100000E-002
DBI_INP_L_RETURN_HYD_MAINFOLD_PRESS 0 0 = 102
DBI_INP_K_DRAIN_HYD_MAINFOLD_PRESS 0 0 = 6.100000E-002
DBI_INP_L_DRAIN_HYD_MAINFOLD_PRESS 0 0 = 102
DBI_INP_K_MAIN_PUMP_PRESS_CS_A 0 0 = 1.070000E-001
DBI_INP_L_MAIN_PUMP_PRESS_CS_A 0 0 = 415
DBI_INP_K_MAIN_PUMP_PRESS_CS_B 0 0 = 4.280000E-001
DBI_INP_L_MAIN_PUMP_PRESS_CS_B 0 0 = 102
DBI_INP_K_HYD_FLUID_TEMP 0 0 = 2.400000E-001
DBI_INP_L_HYD_FLUID_TEMP 0 0 = 347
DBI_DRAIN_FILTER_1_DIRTY_TIME 0 0 = 2
DBI_DRAIN_FILTER_2_DIRTY_TIME 0 0 = 2
DBI_RETURN_FILTER_1_DIRTY_TIME 0 0 = 2
DBI_RETURN_FILTER_2_DIRTY_TIME 0 0 = 2
DBI_COC_FILTER_DIRTY_TIME 0 0 = 2
DBI_ALARM_HYD_OIL_LEVEL_LOW_FLT_CONST 0 0 = 8.000000E-001
DBI_ALARM_HYD_OIL_LEVEL_LOW_ERR_LIMIT 0 0 = 0.000000E+000
DBI_ALARM_AIR_COMPRESSOR_TEMP_HIGH_FLT_CONST 0 0 = 8.000000E-001
DBI_ALARM_AIR_COMPRESSOR_TEMP_HIGH_ERR_LIMIT 0 0 = 0.000000E+000
DBI_ALARM_AIR_COMPRESSOR_PRESS_HIGH_FLT_CONST 0 0 = 8.000000E-001
DBI_ALARM_AIR_COMPRESSOR_PRESS_HIGH_WRN_LIMIT 0 0 = 8.273708E+000
DBI_ALARM_AIR_COMPRESSOR_PRESS_HIGH_ERR_LIMIT 0 0 = 8.963184E+000
DBI_ALARM_HYD_OIL_TEMP_HIGH_FLT_CONST 0 0 = 8.000000E-001
DBI_ALARM_HYD_OIL_TEMP_HIGH_WRN_LIMIT 0 0 = 6.000000E+001
DBI_ALARM_HYD_OIL_TEMP_HIGH_ERR_LIMIT 0 0 = 7.111111E+001
DBI_AIR_FILTER_DIRTY_DELAY 0 0 = 5
DBI_FUEL_LEVEL_LOW_VALUE 0 0 = 10
DBI_CABSIDE_DE_JACK_PRES_LIMIT 0 0 = 0.000000E+000
DBI_NONCABSIDE_DE_JACK_PRES_LIMIT 0 0 = 0.000000E+000
DBI_CABSIDE_JACK_PRES_LIMIT 0 0 = 0.000000E+000
DBI_NONCABSIDE_JACK_PRES_LIMIT 0 0 = 0.000000E+000
DBI_TOWER_WIGGLE_CURRENT 0 0 = 50
DBI_HOIST_INACTIVATE_TIME 0 0 = 10
DBI_HOIST_CURRENT_MAX 0 0 = 89
DBI_HOIST_CURRENT_MIN 0 0 = 40
DBI_PULLDOWN_CABLE_START_RAMP_TIME 0 0 = 200
DBI_PULLDOWN_CABLE_STOP_RAMP_TIME 0 0 = 200
DBI_PULLDOWN_CABLE_MAX_OUT_VALUE 0 0 = 80
DBI_MIN_HORIZONTAL_TOWER_ANGLE 0 0 = 8.000000E+001
DBI_MAX_HORIZONTAL_TOWER_ANGLE 0 0 = 8.900000E+001
DBI_BRAKE_VALVE_LIMIT 0 0 = 2.757903E+001
DBI_CABSIDE_TRACK_MIN_POS_VALVE_CURR 0 0 = 180
DBI_CABSIDE_TRACK_MAX_POS_VALVE_CURR 0 0 = 350
DBI_CABSIDE_TRACK_MIN_NEG_VALVE_CURR 0 0 = 180
DBI_CABSIDE_TRACK_MAX_NEG_VALVE_CURR 0 0 = 350
DBI_NON_CABSIDE_TRACK_MIN_POS_VALVE_CURR 0 0 = 115
DBI_NON_CABSIDE_TRACK_MAX_POS_VALVE_CURR 0 0 = 350
DBI_NON_CABSIDE_TRACK_MIN_NEG_VALVE_CURR 0 0 = 115
DBI_NON_CABSIDE_TRACK_MAX_NEG_VALVE_CURR 0 0 = 350
DBI_PROPEL_LEVER_CMD_VEL_INC 0 0 = 500
DBI_JACK_LEVER_WAIT_TIMER 0 0 = 500
DBI_CABSIDE_JACK_MIN_POS_VALVE_CURR 0 0 = 5.800000E+001
DBI_CABSIDE_JACK_MAX_POS_VALVE_CURR 0 0 = 9.500000E+001
DBI_CABSIDE_JACK_MIN_NEG_VALVE_CURR 0 0 = 5.800000E+001
DBI_CABSIDE_JACK_MAX_NEG_VALVE_CURR 0 0 = 9.500000E+001
DBI_NON_CABSIDE_JACK_MIN_POS_VALVE_CURR 0 0 = 5.800000E+001
DBI_NON_CABSIDE_JACK_MAX_POS_VALVE_CURR 0 0 = 9.500000E+001
DBI_NON_CABSIDE_JACK_MIN_NEG_VALVE_CURR 0 0 = 5.800000E+001
DBI_NON_CABSIDE_JACK_MAX_NEG_VALVE_CURR 0 0 = 9.500000E+001
DBI_NON_DRILLEND_JACK_MIN_POS_VALVE_CURR 0 0 = 5.800000E+001
DBI_NON_DRILLEND_JACK_MAX_POS_VALVE_CURR 0 0 = 9.500000E+001
DBI_NON_DRILLEND_JACK_MIN_NEG_VALVE_CURR 0 0 = 5.800000E+001
DBI_NON_DRILLEND_JACK_MAX_NEG_VALVE_CURR 0 0 = 9.500000E+001
DBI_CABSIDE_JACK_CURRENT_AUTOLEVEL 0 0 = 1.000000E+002
DBI_NON_CABSIDE_JACK_CURRENT_AUTOLEVEL 0 0 = 1.000000E+002
DBI_NON_DRILLEND_JACK_CURRENT_AUTOLEVEL 0 0 = 1.000000E+002
DBI_CABSIDE_JACK_CURRENT_AL_ALIGN 0 0 = 7.000000E+001
DBI_NON_CABSIDE_JACK_CURRENT_AL_ALIGN 0 0 = 7.000000E+001
DBI_NON_DRILLEND_JACK_CURRENT_AL_ALIGN 0 0 = 7.000000E+001
DBI_AUTOLEVEL_TOTAL_TIME 0 0 = 100
DBI_AUTOLEVEL_ALL_DOWN_TIME 0 0 = 60
DBI_AUTOLEVEL_PITCH_TIME 0 0 = 20
DBI_AUTOLEVEL_ROLL_TIME 0 0 = 20
DBI_AUTOLEVEL_PITCH_ANGLE_LIMIT 0 0 = -1.000000E-001
DBI_AUTOLEVEL_ROLL_ANGLE_LIMIT 0 0 = 2.000000E-001
DBI_AUTOLEVEL_PITCH_ANGLE_ERROR 0 0 = 4.500000E+000
DBI_AUTOLEVEL_ROLL_ANGLE_ERROR 0 0 = 4.500000E+000
DBI_AUTOLEVEL_PITCH_ANGLE_ALIGN 0 0 = 7.000000E+000
DBI_AUTODELEVEL_PITCH_ANGLE_ALIGN 0 0 = 7.000000E+000
DBI_AUTODELEVEL_ROLL_ANGLE_ALIGN 0 0 = 7.000000E+000
DBI_AUTODELEVEL_TOTAL_TIME 0 0 = 60
DBI_OUT_CARO_INDEX_RAMP_UP_TIME 0 0 = 100
DBI_OUT_CARO_INDEX_RAMP_DOWN_TIME 0 0 = 100
DBI_OUT_CARO_SWING_RAMP_UP_TIME 0 0 = 100
DBI_OUT_CARO_SWING_RAMP_DOWN_TIME 0 0 = 100
DBI_OUT_ROD_ARM_RAMP_UP_TIME 0 0 = 100
DBI_OUT_ROD_ARM_RAMP_DOWN_TIME 0 0 = 3500
DBI_RESET_LOW_LUBE_TANK_LEVEL 0 0 = 10
DBI_LUBE_CYCLE_INTERVAL 0 0 = 13000
DBI_MAX_LUBE_CYCLE_TIME 0 0 = 200
DBI_TIME_BEFORE_FIRST_LUBR 0 0 = 500
DBI_WATER_INJ_WASH_WAND_CURRENT 0 0 = 100
DBI_WATER_INJ_KICKSTART_PERCENT 0 0 = 8.000000E+001
DBI_WATER_INJ_KICKSTART_TIME 0 0 = 2000
DBI_WATER_INJ_CURRENT_MIN 0 0 = 63
DBI_WATER_INJ_CURRENT_MAX 0 0 = 67
DBI_WATER_TANK_ERROR_LEVEL 0 0 = 3
DBI_WATER_TANK_WARNING_LEVEL 0 0 = 8
DBI_WATER_INJ_OFF_TIME 0 0 = 5
DBI_AIREND_ACTIVE_TIME 0 0 = 2
DBI_AIR_TANK_PRES_LOW_LIMIT 0 0 = 2.757903E+000
DBI_WATER_INJ_OUTPUT_SAVE 0 0 = -6.700000E+001
DBI_AIR_FLOW_OUTPUT_SAVE 0 0 = 5.300000E+001
DBI_DRI_HOLE_NO 0 0 = 0
DBI_LENGTH_OF_CRADLE 0 0 = 2.347598E+001
DBI_UPPER_CALIB_POINT 0 0 = 2.782858E+000
DBI_MIDDLE_CALIB_POINT 0 0 = 1.127469E+001
DBI_DRI_TARGET_DEPTH 0 0 = 2.590832E+001
DBI_PREDEFINED_CRADLE_POS 0 0 = 1.219215E+000
DBI_PREDEFINED_CRADLE_POS 0 1 = 1.981224E+000
DBI_PREDEFINED_CRADLE_POS 0 2 = 1.127774E+001
DBI_PREDEFINED_CRADLE_POS 0 3 = 1.097293E+001
DBI_PREDEFINED_CRADLE_POS 0 4 = 1.145757E+001
DBI_PREDEFINED_CRADLE_POS 0 5 = 1.402097E+001
DBI_PREDEFINED_CRADLE_POS 0 6 = 2.336320E+001
DBI_DIST_NEAR_CRADLE_POS 0 0 = 1.524018E-002
DBI_DIST_BREAK_FORW_CRADLE_POS 0 0 = 9.144111E-002
DBI_DIST_BREAK_BACKW_CRADLE_POS 0 0 = 3.048037E-001
DBI_AUTO_ROD_SUPPORT_CLOSE_TIME 0 0 = 7000
DBI_DRILL_FEED_PRES_MIN_DC 0 0 = 3.000000E+001
DBI_DRILL_FEED_PRES_MAX_DC 0 0 = 2.300000E+002
DBI_HOLD_BACK_PRES_MIN_DC 0 0 = 5.000000E+001
DBI_HOLD_BACK_PRES_MAX_DC 0 0 = 7.000000E+002
DBI_FEED_RATE_MIN_CURR 0 0 = 200
DBI_FEED_RATE_MAX_CURR 0 0 = 350
DBI_FEED_RATE_ACC_LIMIT_PERCENT 0 0 = 1.000000E+002
DBI_DRILL_FEED_PRES_REDUCED_DC 0 0 = 4.000000E+000
DBI_DRILL_FEED_RATE_REDUCED_PERCENT_OF_MAX 0 0 = 4.000000E+001
DBI_DRILL_FEED_RATE_MAX_NOT_CALIB_PERCENT 0 0 = 5.000000E+001
DBI_FEED_PRES_CYL_PISTON_DIAMETER 0 0 = 1.778004E+002
DBI_FEED_PRES_CYL_ROD_DIAMETER 0 0 = 1.320803E+002
DBI_FEED_PRES_NO_OF_CYL 0 0 = 2
DBI_FEED_PRES_REEVING_FACTOR 0 0 = 2.000000E+000
DBI_FEED_PRES_MECHANICAL_EFFICIENCY 0 0 = 9.600000E-001
DBI_FEED_PRES_ROTARY_HEAD_WEIGHT 0 0 = 2.849950E+003
DBI_FEED_PRES_ROD_WEIGHT 0 0 = 2.267985E+003
DBI_DRILL_NUMBER_OF_RODS_ON_STRING 0 0 = 1
DBI_HOLD_BACK_PRES_CONST 0 0 = 3.000000E+002
DBI_DRI_FEED_PRES_CALIB_REG_PROP_CONST 0 0 = 1.000000E-001
DBI_DRI_FEED_PRES_CALIB_REG_INT_CONST 0 0 = 1.000000E+000
DBI_ROTA_SPEED_MIN_CURR 0 0 = 150
DBI_ROTA_SPEED_MAX_CURR 0 0 = 340
DBI_ROTA_PRES_MIN_DC 0 0 = 4.000000E+001
DBI_ROTA_PRES_MAX_DC 0 0 = 3.700000E+002
DBI_ROTA_TORQUE_DRILL_PERCENT 0 0 = 1.000000E+002
DBI_ROTA_SPEED_ACC_LIMIT_PERCENT 0 0 = 1.000000E+002
DBI_ROTA_MOTOR_DISPLACEMENT 0 0 = 8.281573E+002
DBI_ROTA_MOTOR_RETURN_PRESSURE 0 0 = 3.792116E+000
DBI_ROTA_HEAD_GEAR_RATIO 0 0 = 1.481000E+001
DBI_ROTA_MOTOR_TORQUE_EFFICIENCY 0 0 = 9.600000E-001
DBI_STOP_DRILL_PRESSURES_AT 0 0 = 0
DBI_DRILL_BIT_NUMBER 0 0 = 0
DBI_ADRILL_ROTA_SPEED_DRILL_PERCENT 0 0 = 6.000000E+001
DBI_ADRILL_ROTA_SPEED_DRILL_PERCENT 0 1 = 6.000000E+001
DBI_ADRILL_ROTA_SPEED_DRILL_PERCENT 0 2 = 6.000000E+001
DBI_ADRILL_ROTA_SPEED_COLLAR_PERCENT 0 0 = 4.000000E+001
DBI_ADRILL_ROTA_SPEED_COLLAR_PERCENT 0 1 = 4.000000E+001
DBI_ADRILL_ROTA_SPEED_COLLAR_PERCENT 0 2 = 4.000000E+001
DBI_ADRILL_ROTA_SPEED_ARETURN_PERCENT 0 0 = 2.000000E+001
DBI_ADRILL_ROTA_TORQUE_DRILL_KNM 0 0 = 1.500000E+001
DBI_ADRILL_ROTA_TORQUE_DRILL_KNM 0 1 = 1.500000E+001
DBI_ADRILL_ROTA_TORQUE_DRILL_KNM 0 2 = 1.500000E+001
DBI_ADRILL_ROTA_TORQUE_STUCK_KNM 0 0 = 2.500000E+001
DBI_ADRILL_ROTA_TORQUE_DEC_NOT_STUCK_KNM 0 0 = 5.000000E+000
DBI_ADRILL_FEED_RATE_DRILL_PERCENT 0 0 = 9.500000E+001
DBI_ADRILL_FEED_RATE_COLLAR_PERCENT 0 0 = 3.500000E+001
DBI_ADRILL_FEED_RATE_COLLAR_PERCENT 0 1 = 3.500000E+001
DBI_ADRILL_FEED_RATE_COLLAR_PERCENT 0 2 = 3.500000E+001
DBI_ADRILL_FEED_RATE_ARETURN_PERCENT 0 0 = 8.500000E+001
DBI_ADRILL_FEED_FORCE_ON_BIT_COLLAR_MAX_KN 0 0 = 1.000000E+002
DBI_ADRILL_FEED_FORCE_ON_BIT_COLLAR_MAX_KN 0 1 = 1.000000E+002
DBI_ADRILL_FEED_FORCE_ON_BIT_COLLAR_MAX_KN 0 2 = 1.000000E+002
DBI_ADRILL_FEED_FORCE_ON_BIT_DRILL_MAX_KN 0 0 = 1.000000E+002
DBI_ADRILL_FEED_FORCE_ON_BIT_DRILL_MAX_KN 0 1 = 1.000000E+002
DBI_ADRILL_FEED_FORCE_ON_BIT_DRILL_MAX_KN 0 2 = 1.000000E+002
DBI_ADRILL_ESTIMATED_HOLD_BACK_PRES 0 0 = 0.000000E+000
DBI_ADRILL_WATER_INJ_COLLAR_PERCENT 0 0 = 6.300000E+001
DBI_ADRILL_WATER_INJ_DRILL_PERCENT 0 0 = 6.300000E+001
DBI_ADRILL_AIR_PRES_LIMIT_JAM 0 0 = 2.000000E+001
DBI_ADRILL_AIR_FLOW_COLLAR_PERCENT 0 0 = 2.500000E+001
DBI_ADRILL_AIR_FLOW_COLLAR_PERCENT 0 1 = 2.500000E+001
DBI_ADRILL_AIR_FLOW_COLLAR_PERCENT 0 2 = 2.500000E+001
DBI_ADRILL_AIR_FLOW_DRILL_PERCENT 0 0 = 9.000000E+001
DBI_ADRILL_AIR_FLOW_DRILL_PERCENT 0 1 = 9.000000E+001
DBI_ADRILL_AIR_FLOW_DRILL_PERCENT 0 2 = 9.000000E+001
DBI_ADRILL_RC_DETECTION_ON 0 0 = 0
DBI_ADRILL_AUTO_RETURN_ON  0 0 = 1
DBI_ADRILL_HOLE_CLEAN_TYPE 0 0 = 0
DBI_ADRILL_HOLE_FLUSH_TIME 0 0 = 5000
DBI_ADRILL_FEED_FORCE_INC_RC_KN 0 0 = 1.000000E+001
DBI_ADRILL_MOVE_BACKW_DIST_AT_START 0 0 = 1.000000E-001
DBI_ADRILL_RAMP_UP_TIME 0 0 = 5000
DBI_ADRILL_MOVE_BACKW_DIST_AT_HOLE_CLEAN 0 0 = 1.000000E+000
DBI_ADRILL_COLLAR_DISTANCE 0 0 = 2.000000E+000
DBI_ADRILL_COLLAR_DISTANCE 0 1 = 2.000000E+000
DBI_ADRILL_COLLAR_DISTANCE 0 2 = 2.000000E+000
DBI_ADRILL_CALIB_DOWN_FEED_PRES_MIN 0 0 = 2.000000E+001
DBI_ADRILL_CALIB_DOWN_FEED_PRES_MAX 0 0 = 2.000000E+002
DBI_ADRILL_RT_PROP_CONST 0 0 = 4.000000E-002
DBI_ADRILL_RT_INT_CONST 0 0 = 1.000000E-001
DBI_ADRILL_RT_DERIV_CONST 0 0 = 0.000000E+000
DBI_ADRILL_SPEED_REG_FORCE_PROP_CONST 0 0 = 2.000000E-001
DBI_ADRILL_SPEED_REG_FORCE_INT_CONST 0 0 = 2.000000E+000
DBI_ADRILL_SPEED_REG_FORCE_DERIV_CONST 0 0 = 0.000000E+000
DBI_ADRILL_SPEED_REG_RATE_PROP_CONST 0 0 = 2.000000E-001
DBI_ADRILL_SPEED_REG_RATE_INT_CONST 0 0 = 2.000000E+000
DBI_ADRILL_SPEED_REG_RATE_DERIV_CONST 0 0 = 0.000000E+000
DBI_ADRILL_VIB_PROP_CONST 0 0 = 1.000000E-001
DBI_ADRILL_VIB_INT_CONST 0 0 = 1.000000E+000
DBI_ADRILL_VIB_DERIV_CONST 0 0 = 0.000000E+000
DBI_ADRILL_COLLAR_DRILL_SPEED 0 0 = 1.000000E+000
DBI_ADRILL_COLLAR_DRILL_SPEED 0 1 = 1.000000E+000
DBI_ADRILL_COLLAR_DRILL_SPEED 0 2 = 1.000000E+000
DBI_ADRILL_MAX_DRILL_SPEED 0 0 = 2.000000E+000
DBI_ADRILL_MAX_DRILL_SPEED 0 1 = 2.000000E+000
DBI_ADRILL_MAX_DRILL_SPEED 0 2 = 2.000000E+000
DBI_ADRILL_RT_CONTROL_ENABLED 0 0 = 1
DBI_ADRILL_FS_CONTROL_ENABLED 0 0 = 1
DBI_ADRILL_VIB_CONTROL_ENABLED 0 0 = 1
DBI_ADRILL_VIBRATION_LOW_LIMIT 0 0 = 1.200000E+001
DBI_ADRILL_VIBRATION_HIGH_LIMIT 0 0 = 2.000000E+001
DBI_ADRILL_RT_ANTI_JAM_FILT_FREQ 0 0 = 1.000000E+000
DBI_ADRILL_BIT_IS_STILL_RPM 0 0 = 5.000000E+000
DBI_ADRILL_AUTO_RETURN_ANTI_JAM_ON 0 0 = 0
DBI_ADRILL_MIN_BIT_AIR_PRES 0 0 = 2.000000E+000
DBI_ADRILL_DCT_OR_WATER_INJ 0 0 = 0
DBI_ADRILL_DCT_OR_WATER_INJ_ON_AT_START 0 0 = 0
DBI_ADRILL_VIBR_ROTA_SPEED_REDUCTION 0 0 = 1.000000E+001
DBI_DP_SHOW_HOLE_NUMBERS 0 0 = 1
DBI_DP_SHOW_SEQUENCE_LINES 0 0 = 0
DBI_DP_NUMBER_OF_LINES 0 0 = 0
DBI_DP_NEXT_HOLE 0 0 = 0
DBI_DP_USE_AUTO_CAPTURE 0 0 = 0
DBI_DP_AUTO_CAPTURE_DISTANCE 0 0 = 1.000000E+001
DBI_COMP_AIR_PRESS_LOWER_LIMIT 0 0 = 3.102641E+000
DBI_COMP_AIR_PRESS_UPPER_LIMIT 0 0 = 7.584233E+000
DBI_COMP_AIR_FLOW_LOWER_LIMIT 0 0 = 1.000000E+001
DBI_COMP_AIR_FLOW_UPPER_LIMIT 0 0 = 9.000000E+001
DBI_COMP_AIR_FLOW_ORDERED 0 0 = 0.000000E+000
DBI_COMP_AIR_PRESS_ORDERED 0 0 = 7.584233E+000
DBI_COMP_AIR_PRESS_PERCENT_ORDERED 0 0 = 1.000000E+002
DBI_COMP_AIR_PRESS_MAX_CURRENT 0 0 = 9.000000E+001
DBI_COMP_AIR_PRESS_MIN_CURRENT 0 0 = 2.000000E+001
DBI_COMP_AIR_FLOW_MAX_CURRENT 0 0 = 1.000000E+002
DBI_COMP_AIR_FLOW_MIN_CURRENT 0 0 = 1.000000E+001
DBI_FAN_CURRENT_MIN 0 0 = 205
DBI_FAN_CURRENT_MAX 0 0 = 400
DBI_FAN_TEMP_HYDOIL_MIN 0 0 = 57
DBI_FAN_TEMP_HYDOIL_MAX 0 0 = 69
DBI_FAN_TEMP_COMPOIL_MIN 0 0 = 88
DBI_FAN_TEMP_COMPOIL_MAX 0 0 = 102
DBI_FAN_TEMP_COOLANT_MIN 0 0 = 88
DBI_FAN_TEMP_COOLANT_MAX 0 0 = 96
DBI_FAN_FILTER_CONSTANT 0 0 = 1.000000E-001
DBI_ACC_RESET_FLAG 0 0 = 0
DBI_ACC_HOLE_LENGTH_AT_START 0 0 = 9.445600E+001
DBI_PRL_SAMPLE_CHOISE 0 0 = 0
DBI_PRL_CONVERSION_CHOISE 0 0 = 0
DBI_PRL_SAMPLE_TIME 0 0 = 100
DBI_PRL_SAMPLE_LENGTH 0 0 = 2
DBI_PRL_ACTIVE 0 0 = 0
DBI_PRL_PENDINGLOGFLAG 0 0 = 0
DBI_PRL_BIN_FILE_CHECKSUM 0 0 = 0
DBI_TCP_SEND_INTERVAL 0 0 = 1000
DBI_GUI_DRILL_SUPPORT_POS 0 0 = 1.600220E+001
DBI_GUI_CAROUSEL_POS 0 0 = 1.143014E+001
DBI_GUI_ROTATION_SPEED_MAX 0 0 = 1.000000E+002
DBI_GUI_AIR_PRESSURE_MAX 0 0 = 7.239495E+000
DBI_GUI_WEIGTH_ON_BIT_MAX 0 0 = 4.893064E+002
DBI_GUI_ROTA_TORQUE_MAX 0 0 = 2.600000E+001
DBI_GUI_BIT_PENETRATION_MAX 0 0 = 3.048037E+000
DBI_GUI_BACKGR_LIGHT_LEVEL 0 0 = 15
DBI_DRI_ROTA_RPM_GUI_RED_LIMIT 0 0 = 9.600000E+001
DBI_DRI_BIT_AIR_PRESS_GUI_RED_LIMIT 0 0 = 9.652660E+000
DBI_DRI_WEIGTH_ON_BIT_GUI_RED_LIMIT 0 0 = 4.003416E+002
DBI_DRI_ROTA_TORQUE_GUI_RED_LIMIT 0 0 = 2.400000E+001
DBI_DRI_DRILL_MENU_FILTER_FREQ 0 0 = 5.000000E-001
DBI_HLM_ROD_LENGTH 0 0 = 0.000000E+000
DBI_NAV_DIST_D1 0 0 = 1.657400E+000
DBI_NAV_DIST_D2 0 0 = 1.025200E+001
DBI_NAV_DIST_D3 0 0 = 3.485000E+000
DBI_NAV_DIST_D4 0 0 = 3.153700E+000
DBI_NAV_DIST_D5 0 0 = 6.700000E-001
DBI_NAV_DIST_D6 0 0 = 4.368800E+000
DBI_NAV_DIST_D7 0 0 = 0.000000E+000
DBI_NAV_DIST_D8 0 0 = 2.783850E+001
DBI_NAV_DIST_D9 0 0 = 4.560000E-002
DBI_DP_SELECTED_HOLE 0 0 = 00000000
DBI_DP_SELECTED_HOLE 0 1 = 00000000
DBI_DP_SELECTED_HOLE 0 2 = 00000000
DBI_DP_SELECTED_HOLE 0 3 = 00000000
DBI_GPS_COM_BAUD 0 0 = 38400
DBI_GPS_COM_BAUD 0 1 = 38400
ADBI_ECM_ENG_ALL_ACCUM_HOURS 0 0 = 8.450000E+001
ADBI_ENGINE_MIN_RUN_RPM 0 0 = 800
;CHECKSUM      =     FD08C963
