DBI_INP_K_AIREND_TEMP_1 0 0 = 2.420000E-001
DBI_INP_L_AIREND_TEMP_1 0 0 = 361
DBI_INP_K_AIREND_TEMP_2 0 0 = 2.420000E-001
DBI_INP_L_AIREND_TEMP_2 0 0 = 361
DBI_INP_K_HYD_FLUID_TEMP 0 0 = 2.420000E-001
DBI_INP_L_HYD_FLUID_TEMP 0 0 = 361
DBI_INP_K_DRIVE_LUBE_PUMP_GEARBOX_TEMP 0 0 = 2.420000E-001
DBI_INP_L_DRIVE_LUBE_PUMP_GEARBOX_TEMP 0 0 = 361
DBI_INP_K_DRIVE_LUBE_PUMP_GEARBOX_PRESS 0 0 = 6.100000E-002
DBI_INP_L_DRIVE_LUBE_PUMP_GEARBOX_PRESS 0 0 = 102
DBI_INP_K_ROTARY_LUBE_PUMP_TEMP 0 0 = 2.420000E-001
DBI_INP_L_ROTARY_LUBE_PUMP_TEMP 0 0 = 361
DBI_INP_K_ROTARY_LUBE_PUMP_PRESS 0 0 = 6.100000E-002
DBI_INP_L_ROTARY_LUBE_PUMP_PRESS 0 0 = 102
DBI_ALARM_HYD_OIL_TEMP_HIGH_WRN_LIMIT 0 0 = 7.950000E+001
DBI_ALARM_HYD_OIL_TEMP_HIGH_ERR_LIMIT 0 0 = 8.800000E+001
DBI_AIR_TEMP_1_WARNING 0 0 = 1.155400E+002
DBI_AIR_TEMP_1_SHUTDOWN 0 0 = 1.211000E+002
DBI_FAN_TEMP_HYDOIL_MIN 0 0 = 43
DBI_FAN_TEMP_HYDOIL_MAX 0 0 = 60
DBI_FAN_TEMP_COMPOIL_MIN 0 0 = 95
DBI_FAN_TEMP_COMPOIL_MAX 0 0 = 112
DBI_FAN_TEMP_COOLANT_MIN 0 0 = 82
DBI_FAN_TEMP_COOLANT_MAX 0 0 = 96
DBI_FAN_TEMP_CLUTCH_MIN 0 0 = 65
DBI_FAN_TEMP_CLUTCH_MAX 0 0 = 82
DBI_FAN_TEMP_ENGINE_INTAKE_MANIFOLD_MIN 0 0 = 40
DBI_FAN_TEMP_ENGINE_INTAKE_MANIFOLD_MAX 0 0 = 47
DBI_FAN_TEMP_CAC_MIN 0 0 = 40
DBI_FAN_TEMP_CAC_MAX 0 0 = 47
DBI_FAN_FILTER_CONSTANT 0 0 = 1.000000E-001
DBI_MAX_ALLOWED_PITCH_TOWER_UP_NDE_LOW 0 0 = 2.000000E+001
DBI_MAX_ALLOWED_PITCH_TOWER_UP_DE_LOW 0 0 = 6.000000E+000
DBI_MAX_ALLOWED_ROLL_TOWER_UP_NCS_LOW 0 0 = 1.700000E+001
DBI_MAX_ALLOWED_ROLL_TOWER_UP_CS_LOW 0 0 = 1.600000E+001
DBI_PITCH_ROLL_ANGLE_ALARM_TIME 0 0 = 2000
DBI_MAX_ALLOWED_PITCH_TOWER_DOWN_NDE_LOW 0 0 = 2.000000E+001
DBI_MAX_ALLOWED_PITCH_TOWER_DOWN_DE_LOW 0 0 = 2.000000E+001
DBI_MAX_ALLOWED_ROLL_TOWER_DOWN_NCS_LOW 0 0 = 2.000000E+001
DBI_MAX_ALLOWED_ROLL_TOWER_DOWN_CS_LOW 0 0 = 2.000000E+001
DBI_TOWER_ANGLE_ALARM_TIME 0 0 = 2000
DBI_MAX_ALLOWED_PITCH_TOWER_UP_NDE_LOW_LEVEL 0 0 = 2.000000E+001
DBI_MAX_ALLOWED_PITCH_TOWER_UP_DE_LOW_LEVEL 0 0 = 7.000000E+000
DBI_MAX_ALLOWED_ROLL_TOWER_UP_NCS_LOW_LEVEL 0 0 = 1.200000E+001
DBI_MAX_ALLOWED_ROLL_TOWER_UP_CS_LOW_LEVEL 0 0 = 9.000000E+000
DBI_MAX_ALLOWED_PITCH_TOWER_DOWN_NDE_LOW_LEVEL 0 0 = 9.000000E+000
DBI_MAX_ALLOWED_PITCH_TOWER_DOWN_DE_LOW_LEVEL 0 0 = 7.000000E+000
DBI_MAX_ALLOWED_ROLL_TOWER_DOWN_NCS_LOW_LEVEL 0 0 = 1.200000E+001
DBI_MAX_ALLOWED_ROLL_TOWER_DOWN_CS_LOW_LEVEL 0 0 = 9.000000E+000
DBI_INP_K_RIG_INCL_PITCH 0 0 = 2.900000E-002
DBI_INP_L_RIG_INCL_PITCH 0 0 = 2358
DBI_INP_K_RIG_INCL_ROLL 0 0 = -1.150000E-001
DBI_INP_L_RIG_INCL_ROLL 0 0 = 589
DBI_INP_K_TOWER_ANGLE 0 0 = 1.150000E-001
DBI_INP_L_TOWER_ANGLE 0 0 = 189
DBI_TOWER_FUNCTION_PITCH_LIMIT 0 0 = 1.000000E+000
DBI_TOWER_FUNCTION_ROLL_LIMIT 0 0 = 1.000000E+000
DBI_SYSTEM_MIN_VOLTAGE 0 0 = 2.000000E+001
DBI_SYSTEM_MAX_VOLTAGE 0 0 = 2.800000E+001
DBI_VOLTAGE_ALARM_DELAY 0 0 = 3.000000E+002
DBI_INP_K_PROPEL_BREAK_RELEASE 0 0 = 6.1000E-002
DBI_INP_L_PROPEL_BREAK_RELEASE 0 0 = 102
DBI_INP_K_MAIN_PUMP_PRESS_CS_A 0 0 = 1.070000E-001
DBI_INP_L_MAIN_PUMP_PRESS_CS_A 0 0 = 410
DBI_INP_K_MAIN_PUMP_PRESS_CS_B 0 0 = 4.270000E-001
DBI_INP_L_MAIN_PUMP_PRESS_CS_B 0 0 = 102
DBI_INP_K_MAIN_PUMP_PRESS_NCS_A 0 0 = 1.070000E-001
DBI_INP_L_MAIN_PUMP_PRESS_NCS_A 0 0 = 410
DBI_INP_K_MAIN_PUMP_PRESS_NCS_B 0 0 = 4.270000E-001
DBI_INP_L_MAIN_PUMP_PRESS_NCS_B 0 0 = 102
DBI_INP_K_HOT_OIL_SHUTTLE_PRESS_CS 0 0 = 6.100000E-002
DBI_INP_L_HOT_OIL_SHUTTLE_PRESS_CS 0 0 = 102
DBI_INP_K_HOT_OIL_SHUTTLE_PRESS_NCS 0 0 = 6.100000E-002
DBI_INP_L_HOT_OIL_SHUTTLE_PRESS_NCS 0 0 = 102
DBI_INP_K_RETURN_HYD_MAINFOLD_PRESS 0 0 = 6.100000E-002
DBI_INP_L_RETURN_HYD_MAINFOLD_PRESS 0 0 = 102
DBI_INP_K_DRAIN_HYD_MAINFOLD_PRESS 0 0 = 6.100000E-002
DBI_INP_L_DRAIN_HYD_MAINFOLD_PRESS 0 0 = 102
DBI_INP_K_FAN_INLET_PRESS 0 0 = 4.270000E-001
DBI_INP_L_FAN_INLET_PRESS 0 0 = 102
DBI_INP_K_AIREND_TANK_PRESS 0 0 = 6.100000E-002
DBI_INP_L_AIREND_TANK_PRESS 0 0 = 412
DBI_INP_K_SUPERCHARGE_MAINFOLD_PRESS 0 0 = 6.100000E-002
DBI_INP_L_SUPERCHARGE_MAINFOLD_PRESS 0 0 = 102
DBI_INP_K_BIT_AIR_PRESS 0 0 = 1.500000E-002
DBI_INP_L_BIT_AIR_PRESS 0 0 = 410
DBI_INP_K_HOLDBACK_PRESS 0 0 = 4.270000E-001
DBI_INP_L_HOLDBACK_PRESS 0 0 = 102
DBI_INP_K_6_SP_INLET_PRESSURE 0 0 = 4.270000E-001
DBI_INP_L_6_SP_INLET_PRESSURE 0 0 = 102
DBI_INP_K_7_SP_INLET_PRESSURE 0 0 = 4.270000E-001
DBI_INP_L_7_SP_INLET_PRESSURE 0 0 = 102
DBI_INP_K_LOWER_TOWER_LAT_VIBR 0 0 = 1.220000E-001
DBI_INP_L_LOWER_TOWER_LAT_VIBR 0 0 = 196
DBI_AUTO_OPEN_LOOP_SPEED_CTRL_LEFT_GAIN 0 0 = 1.000000E+000
DBI_AUTO_OPEN_LOOP_SPEED_CTRL_RIGHT_GAIN 0 0 = 1.000000E+000
DBI_AUTO_SPEED_CTRL_LEFT_LAMBDA 0 0 = 2.500000E+000
DBI_AUTO_SPEED_CTRL_LEFT_GAIN 0 0 = 5.000000E-001
DBI_AUTO_SPEED_CTRL_LEFT_GAIN 0 1 = 7.400000E-001
DBI_AUTO_SPEED_CTRL_LEFT_GAIN 0 2 = 1.000000E+000
DBI_AUTO_SPEED_CTRL_LEFT_GAIN 0 3 = 2.000000E+000
DBI_AUTO_SPEED_CTRL_LEFT_TIME_CONSTANT 0 0 = 1.900000E-001
DBI_AUTO_SPEED_CTRL_LEFT_TIME_CONSTANT 0 1 = 2.000000E-001
DBI_AUTO_SPEED_CTRL_LEFT_TIME_CONSTANT 0 2 = 1.700000E-001
DBI_AUTO_SPEED_CTRL_LEFT_TIME_CONSTANT 0 3 = 2.000000E-001
DBI_AUTO_SPEED_CTRL_LEFT_DELAY 0 0 = 1.900000E-001
DBI_AUTO_SPEED_CTRL_LEFT_DELAY 0 1 = 1.600000E-001
DBI_AUTO_SPEED_CTRL_LEFT_DELAY 0 2 = 1.700000E-001
DBI_AUTO_SPEED_CTRL_LEFT_DELAY 0 3 = 2.000000E-001
DBI_AUTO_SPEED_CTRL_RIGHT_LAMBDA 0 0 = 2.500000E+000
DBI_AUTO_SPEED_CTRL_RIGHT_GAIN 0 0 = 5.000000E-001
DBI_AUTO_SPEED_CTRL_RIGHT_GAIN 0 1 = 7.400000E-001
DBI_AUTO_SPEED_CTRL_RIGHT_GAIN 0 2 = 1.000000E+000
DBI_AUTO_SPEED_CTRL_RIGHT_GAIN 0 3 = 2.000000E+000
DBI_AUTO_SPEED_CTRL_RIGHT_TIME_CONSTANT 0 0 = 1.900000E-001
DBI_AUTO_SPEED_CTRL_RIGHT_TIME_CONSTANT 0 1 = 2.000000E-001
DBI_AUTO_SPEED_CTRL_RIGHT_TIME_CONSTANT 0 2 = 1.700000E-001
DBI_AUTO_SPEED_CTRL_RIGHT_TIME_CONSTANT 0 3 = 2.000000E-001
DBI_AUTO_SPEED_CTRL_RIGHT_DELAY 0 0 = 1.900000E-001
DBI_AUTO_SPEED_CTRL_RIGHT_DELAY 0 1 = 1.600000E-001
DBI_AUTO_SPEED_CTRL_RIGHT_DELAY 0 2 = 1.700000E-001
DBI_AUTO_SPEED_CTRL_RIGHT_DELAY 0 3 = 2.000000E-001
DBI_AUTO_MAX_TRACK_SPEED_LEFT 0 0 = 2.500000E-001
DBI_AUTO_MAX_TRACK_SPEED_LEFT 0 1 = 5.000000E-001
DBI_AUTO_MAX_TRACK_SPEED_LEFT 0 2 = 6.500000E-001
DBI_AUTO_MAX_TRACK_SPEED_LEFT 0 3 = 1.160000E+000
DBI_AUTO_MIN_TRACK_SPEED_LEFT 0 0 = -2.500000E-001
DBI_AUTO_MIN_TRACK_SPEED_LEFT 0 1 = -5.000000E-001
DBI_AUTO_MIN_TRACK_SPEED_LEFT 0 2 = -6.500000E-001
DBI_AUTO_MIN_TRACK_SPEED_LEFT 0 3 = -1.160000E+000
DBI_AUTO_MAX_TRACK_SPEED_RIGHT 0 0 = 2.500000E-001
DBI_AUTO_MAX_TRACK_SPEED_RIGHT 0 1 = 5.000000E-001
DBI_AUTO_MAX_TRACK_SPEED_RIGHT 0 2 = 6.500000E-001
DBI_AUTO_MAX_TRACK_SPEED_RIGHT 0 3 = 1.160000E+000
DBI_AUTO_MIN_TRACK_SPEED_RIGHT 0 0 = -2.500000E-001
DBI_AUTO_MIN_TRACK_SPEED_RIGHT 0 1 = -5.000000E-001
DBI_AUTO_MIN_TRACK_SPEED_RIGHT 0 2 = -6.500000E-001
DBI_AUTO_MIN_TRACK_SPEED_RIGHT 0 3 = -1.160000E+000
DBI_AUTO_SHAFT_SPEED_LEFT_PULSES_PER_M 0 0 = 1.177000E+004
DBI_AUTO_SHAFT_SPEED_LEFT_FILTER_CUTOFF 0 0 = 6.250000E+000
DBI_AUTO_SHAFT_SPEED_RIGHT_PULSES_PER_M 0 0 = 1.177000E+004
DBI_AUTO_SHAFT_SPEED_RIGHT_FILTER_CUTOFF 0 0 = 6.250000E+000
DBI_AUTO_TRACK_MONITOR_ACTIVE 0 0 = 0
DBI_AUTO_TRACK_MONITOR_ERROR_THRESHOLD 0 0 = 2.000000E-001
DBI_AUTO_TRACK_MONITOR_STUCK_TIMEOUT 0 0 = 5000
DBI_AUTO_TRACK_MONITOR_STILL_TOLERANCE 0 0 = 1.000000E-001
DBI_AUTO_TRACK_MONITOR_STABLE_TOLERANCE 0 0 = 5.000000E-002
DBI_ROTA_SPEED_ACC_LIMIT_PERCENT 0 0 = 2.000000E+002
DBI_ROTA_MOTOR_DISPLACEMENT 0 0 = 1.342798E+003
DBI_ROTA_MOTOR_RETURN_PRESSURE 0 0 = 1.378951E+001
DBI_ROTA_HEAD_GEAR_RATIO 0 0 = 1.000000E+000
DBI_ROTA_MOTOR_TORQUE_EFFICIENCY 0 0 = 9.000000E-001
DBI_ROTA_MOTOR_DISPLACEMENT_HI_SPEED 0 0 = 2.685596E+003
DBI_FEED_PRES_CYL_PISTON_DIAMETER 0 0 = 1.651003E+002
DBI_FEED_PRES_CYL_ROD_DIAMETER 0 0 = 1.270003E+002
DBI_FEED_PRES_NO_OF_CYL 0 0 = 1
DBI_FEED_PRES_REEVING_FACTOR 0 0 = 2.000000E+000
DBI_FEED_PRES_MECHANICAL_EFFICIENCY 0 0 = 9.500000E-001
DBI_FEED_PRES_ROTARY_HEAD_WEIGHT 0 0 = 1.360791E+003
DBI_FEED_PRES_ROD_WEIGHT 0 0 = 9.071940E+002
DBI_FEED_RATE_ACC_LIMIT_PERCENT 0 0 = 1.000000E+002
DBI_DRIVE_LPG_HIGH_TEMP_PARAMETER 0 0 = 8.800000E+001
DBI_DRIVE_LPG_LOW_PRESS_PARAMETER 0 0 = 1.000000E+000
DBI_ROTARY_HEAD_LPG_LOW_PRESS_PARAMETER 0 0 = 1.000000E+000
DBI_ROTARY_HEAD_LPG_HIGH_TEMP_PARAMETER 0 0 = 8.777778E+001
DBI_MIN_CLOSED_LOOP_PUMP_PRESSURE 0 0 = 6.894757E+000
DBI_LOW_CLOSED_LOOP_PRESSURE_DURATION 0 0 = 1.000000E+000
DBI_INP_K_FIRE_SUPPRESSION_PRESSURE 0 0 = 4.180000E-001
DBI_INP_L_FIRE_SUPPRESSION_PRESSURE 0 0 = 102
DBI_FIRE_SUPPRESSION_TIMER 0 0 = 2000
DBI_MINIMUM_FIRE_SUPPRESSION_PRESSURE 0 0 = 2.000000E+002
DBI_ALARM_AIR_COMPRESSOR_TEMP_HIGH_FLT_CONST 0 0 = 8.000000E-001
DBI_HEAD_BELOW_CAROUSEL_TOP_MAXIMUM_VALUE 0 0 = 9.900000E+001
; CHECKSUM      =     FD230C10
